{
  "_id": "U6fiMPL8by3ke1d0",
  "name": "Crossbow Bolts (10)",
  "permission": {
    "default": 0
  },
  "type": "loot",
  "data": {
    "description": {
      "value": "<p><strong>Source</strong> <em>Ultimate Equipment pg. 22</em>, <em>PRPG Core Rulebook pg. 142</em>, <em>PRPG Core Rulebook pg. 143</em></p>\n<h3 class=\"framing\"><img style=\"margin: 3px 3px 0px 3px;\" title=\"PFS Legal\" src=\"https://www.aonprd.com/images/PathfinderSocietySymbol.gif\" />Statistics</h3>\n<p><strong>Cost</strong> 1 gp <strong>Weight</strong> 1 lb.</p>\n<p><strong>Category</strong> Ammunition; <strong>Proficiency</strong> Ammunition</p>\n<h3 class=\"framing\">Description</h3>\n<p>A crossbow bolt used as a melee weapon is treated as a light improvised weapon (-4 penalty on attack rolls) and deals damage as a dagger of its size (critical multiplier x2). Bolts come in a case or quiver that holds 10 bolts. All crossbows except repeating crossbows use these kinds of crossbow bolts, which are sometimes called \"quarrels.\"</p>",
      "chat": "",
      "unidentified": ""
    },
    "tags": [],
    "quantity": 10,
    "weight": 10,
    "price": 1,
    "identified": true,
    "hp": {
      "max": 1,
      "value": 1
    },
    "hardness": 5,
    "carried": true,
    "unidentified": {
      "price": 0,
      "name": ""
    },
    "identifiedName": "Crossbow Bolts (10)",
    "cl": 0,
    "aura": {
      "custom": false,
      "school": ""
    },
    "changes": [],
    "changeFlags": {
      "loseDexToAC": false,
      "noEncumbrance": false,
      "mediumArmorFullSpeed": false,
      "heavyArmorFullSpeed": false
    },
    "contextNotes": [],
    "links": {
      "children": []
    },
    "tag": "crossbowBolts10",
    "useCustomTag": false,
    "flags": {
      "boolean": [],
      "dictionary": []
    },
    "subType": "ammo",
    "equipped": false,
    "damage": {
      "parts": [],
      "critParts": []
    }
  },
  "flags": {},
  "img": "icons/weapons/ammunition/arrows-broadhead-white.webp",
  "effects": []
}