{
  "_id": "NZVOy3ioTWBr7FaU",
  "name": "Drow Poison Crossbow Bolt",
  "permission": {
    "default": 0
  },
  "type": "loot",
  "data": {
    "description": {
      "value": "<p><strong>Source</strong> <em>Pathfinder #15: The Armageddon Echo pg. 18</em></p>\n<h3 class=\"framing\"><img style=\"margin: 3px 3px 0px 3px;\" title=\"3.5 Material\" src=\"https://www.aonprd.com/images/ThreeFiveSymbol.gif\" />Statistics</h3>\n<p><strong>Cost</strong> 100 gp <strong>Weight</strong> -</p>\n<p><strong>Category</strong> Ammunition; <strong>Proficiency</strong> Ammunition</p>\n<h3 class=\"framing\">Description</h3>\n<p>These iron bolts have small resin tips that break when the bolts strike their targets. Inside is a dose of drow poison.</p>\n<p>Anyone struck by a drow poison bolt must make a DC 13 Fortitude save or fall unconscious for 1 minute. After 1 minute, the subject must succeed on another DC 13 Fortitude save or remain unconscious for 2d4 hours.</p>\n<p>Those using drow poison bolts do not risk poisoning themselves, but the strange tip affects the bolts' accuracy. Double the range penalties when using a drow poison bolt.</p>",
      "chat": "",
      "unidentified": ""
    },
    "tags": [],
    "quantity": 1,
    "weight": 0,
    "price": 100,
    "identified": true,
    "hp": {
      "max": 1,
      "value": 1
    },
    "hardness": 5,
    "carried": true,
    "unidentified": {
      "price": 0,
      "name": ""
    },
    "identifiedName": "Drow Poison Crossbow Bolt",
    "cl": 0,
    "aura": {
      "custom": false,
      "school": ""
    },
    "changes": [],
    "changeFlags": {
      "loseDexToAC": false,
      "noEncumbrance": false,
      "mediumArmorFullSpeed": false,
      "heavyArmorFullSpeed": false,
      "noStr": false,
      "noDex": false,
      "oneInt": false,
      "oneWis": false,
      "oneCha": false
    },
    "contextNotes": [],
    "links": {
      "children": []
    },
    "tag": "drowPoisonBolt",
    "useCustomTag": false,
    "flags": {
      "boolean": [],
      "dictionary": []
    },
    "subType": "misc",
    "equipped": true,
    "damage": {
      "parts": []
    },
    "conditionals": [],
    "uses": {
      "value": 0,
      "max": 0
    },
    "properties": {},
    "weaponData": {},
    "bonus": {},
    "damageType": {},
    "damage2": {},
    "damage2Type": {}
  },
  "flags": {},
  "img": "icons/weapons/ammunition/arrow-simple-brown.webp",
  "effects": []
}