{
  "_id": "6qhmrODr0eVmWDFj",
  "name": "Durable Arrow",
  "permission": {
    "default": 0
  },
  "type": "loot",
  "data": {
    "description": {
      "value": "<p><strong>Source</strong> <em>Alchemy Manual pg. 20</em>, <em>Elves of Golarion pg. 22</em><br /><strong>Price</strong> 1 gp; <strong>Weight</strong> -<br /><strong>Category</strong> Alchemical Weapons</p>\n<h2 class=\"framing\">Description</h2>\n<p>These arrows are tightly wrapped in strands of alchemical glue. Durable arrows don't break with normal use, whether or not they hit their target; unless a durable arrow goes missing, an archer can retrieve and reuse it again and again.</p>\n<p>Durable arrows can be broken in other ways (such as deliberatenapping, hitting a fire elemental, and so on).</p>\n<p>A magical durable arrow with an enhancement bonus or magic weapon special ability applies these magical effects only the first time it is used-afterward, the durable arrow becomes nonmagical, and it can be reused or imbued with magic again.</p>\n<h2 class=\"framing\">Alchemical Recipe</h2>\n<p><strong>Recipe</strong> (1 cold iron + 1 myrrh)/exposure; <strong>Craft</strong> 25<br /><strong>Time</strong> 1 hour; <strong>Tools</strong> -; <strong>Type</strong> alchemical weapon</p>",
      "chat": "",
      "unidentified": ""
    },
    "tags": [],
    "quantity": 1,
    "weight": 0,
    "price": 1,
    "identified": true,
    "hp": {
      "max": 1,
      "value": 1
    },
    "hardness": 5,
    "carried": true,
    "unidentified": {
      "price": 0,
      "name": ""
    },
    "identifiedName": "Durable Arrow",
    "cl": 0,
    "aura": {
      "custom": false,
      "school": ""
    },
    "changes": [],
    "changeFlags": {
      "loseDexToAC": false,
      "noEncumbrance": false,
      "mediumArmorFullSpeed": false,
      "heavyArmorFullSpeed": false,
      "noStr": false,
      "noDex": false,
      "oneInt": false,
      "oneWis": false,
      "oneCha": false
    },
    "contextNotes": [],
    "links": {
      "children": []
    },
    "tag": "durableArrow",
    "useCustomTag": false,
    "flags": {
      "boolean": [],
      "dictionary": []
    },
    "subType": "ammo",
    "equipped": false,
    "damage": {
      "parts": []
    },
    "properties": {},
    "weaponData": {},
    "bonus": {},
    "damageType": {},
    "damage2": {},
    "damage2Type": {},
    "uses": {
      "value": 0,
      "max": 0
    }
  },
  "flags": {},
  "img": "systems/pf1/icons/items/weapons/arrow-special.PNG",
  "effects": []
}