{
  "_id": "QXs5iZ1gpobwCNp9",
  "name": "Dwarven Boulder Helmet",
  "permission": {
    "default": 0
  },
  "type": "weapon",
  "data": {
    "description": {
      "value": "<p><strong>Source</strong> <em>Advanced Race Guide pg. 17</em></p><h3 class=\"framing\"><img src=\"https://www.aonprd.com/images/PathfinderSocietySymbol.gif\" title=\"PFS Legal\" style=\"margin:3px 3px 0px 3px;\">Statistics</h3><p><strong>Cost</strong> 20 gp <strong>Weight</strong> 10 lbs.</p><p><strong>Damage</strong> 1d3 (small), 1d4 (medium); <strong>Critical</strong> x2; <strong>Range</strong> -; <strong>Type</strong> B; <strong>Special</strong> see text</p><p><strong>Category</strong> Light; <strong>Proficiency</strong> Exotic</p><h3 class=\"framing\">Description</h3><p>This heavy, reinforced helmet can be used to make melee attacks. The wearer may also use the helmet when attempting bull rush maneuvers, granting a +2 circumstance bonus on the check, but after completing the maneuver (whether successful or not), the wearer is staggered until the end of his next turn. In addition, the helmet grants a +2 circumstance bonus to the wearer's AC against critical hit confirmation rolls. A dwarven boulder helmet adds 20% to the wearer's arcane spell failure chance. It occupies the head slot and is made of metal, not stone, meaning that it can be crafted from unusual materials as a metal weapon. A dwarven boulder helmet can be enchanted as a weapon (not as armor, despite providing some protection). </p>",
      "chat": "",
      "unidentified": ""
    },
    "tags": [],
    "quantity": 1,
    "weight": 10,
    "price": 20,
    "identified": true,
    "hp": {
      "max": 2,
      "value": 2
    },
    "hardness": 10,
    "carried": true,
    "unidentified": {
      "price": 0,
      "name": ""
    },
    "identifiedName": "Dwarven Boulder Helmet",
    "cl": 0,
    "aura": {
      "custom": false,
      "school": ""
    },
    "changes": [],
    "changeFlags": {
      "loseDexToAC": false,
      "noEncumbrance": false,
      "mediumArmorFullSpeed": false,
      "heavyArmorFullSpeed": false,
      "noStr": false,
      "noDex": false,
      "oneInt": false,
      "oneWis": false,
      "oneCha": false
    },
    "contextNotes": [],
    "links": {
      "children": []
    },
    "tag": "dwarvenBoulderHelmet",
    "useCustomTag": false,
    "flags": {
      "boolean": [],
      "dictionary": []
    },
    "equipped": true,
    "masterwork": false,
    "nonlethal": false,
    "weaponType": "exotic",
    "weaponSubtype": "light",
    "properties": {
      "blc": false,
      "brc": false,
      "dbl": false,
      "dis": false,
      "fin": false,
      "frg": false,
      "imp": false,
      "mnk": false,
      "nnl": false,
      "prf": false,
      "rch": false,
      "thr": false,
      "trp": false,
      "grp": false,
      "snd": false,
      "dea": false,
      "dst": false
    },
    "enh": null,
    "weaponData": {
      "damageRoll": "1d4",
      "damageType": "B",
      "critRange": 20,
      "critMult": 2,
      "range": 0,
      "attackFormula": "",
      "damageFormula": "",
      "size": "med",
      "maxRangeIncrements": 1
    },
    "broken": false,
    "bonus": {
      "value": 0,
      "_deprecated": true
    },
    "damageType": {
      "value": "",
      "_deprecated": true
    },
    "damage2": {
      "value": "",
      "_deprecated": true
    },
    "damage2Type": {
      "value": "",
      "_deprecated": true
    },
    "damage": {
      "parts": []
    },
    "uses": {
      "value": 0,
      "max": 0
    }
  },
  "flags": {},
  "img": "systems/pf1/icons/items/weapons/helmet-dwarven-bolder.PNG",
  "effects": []
}