{
  "_id": "XPSOkPINqmsPFOk7",
  "name": "Fire Crossbow Bolt",
  "permission": {
    "default": 0
  },
  "type": "loot",
  "data": {
    "description": {
      "value": "<p><strong>Source</strong> <em>Pathfinder #15: The Armageddon Echo pg. 18</em></p><h3 class=\"framing\"><img src=\"https://www.aonprd.com/images/ThreeFiveSymbol.gif\" title=\"3.5 Material\" style=\"margin: 3px 3px 0px 3px\">Statistics</h3><p><strong>Cost</strong> 50 gp <strong>Weight</strong> -</p><p><strong>Category</strong> Ammunition; <strong>Proficiency</strong> Ammunition</p><h3 class=\"framing\">Description</h3><p>These carefully crafted wooden bolts have a hollow core filled with alchemist's fire. On a successful hit, they deal normal damage plus 1d4 points of fire damage. Alchemical fire bolts do not cause any splash damage, and the fire burst isn't enough to ignite targets (unless they are particularly flammable).</p>",
      "chat": "",
      "unidentified": ""
    },
    "tags": [],
    "quantity": 1,
    "weight": 0,
    "price": 50,
    "identified": true,
    "hp": {
      "max": 1,
      "value": 1
    },
    "hardness": 5,
    "carried": true,
    "unidentified": {
      "price": 0,
      "name": ""
    },
    "identifiedName": "Fire Crossbow Bolt",
    "cl": 0,
    "aura": {
      "custom": false,
      "school": ""
    },
    "changes": [],
    "changeFlags": {
      "loseDexToAC": false,
      "noEncumbrance": false,
      "mediumArmorFullSpeed": false,
      "heavyArmorFullSpeed": false,
      "noStr": false,
      "noDex": false,
      "oneInt": false,
      "oneWis": false,
      "oneCha": false
    },
    "contextNotes": [],
    "links": {
      "children": []
    },
    "tag": "fireBolt",
    "useCustomTag": false,
    "flags": {
      "boolean": [],
      "dictionary": []
    },
    "subType": "ammo",
    "equipped": false,
    "damage": {
      "parts": [],
      "critParts": []
    }
  },
  "flags": {},
  "img": "icons/weapons/ammunition/arrow-simple-brown.webp",
  "effects": []
}