{
  "_id": "VUP7AmeSuf8Cse1a",
  "name": "Incendiary Crossbow Bolt",
  "permission": {
    "default": 0
  },
  "type": "loot",
  "data": {
    "description": {
      "value": "<p><strong>Source</strong>&nbsp;<em>Ranged Tactics Toolbox pg. 19</em></p>\n<h3 class=\"framing\"><img style=\"margin: 3px 3px 0px 3px;\" title=\"PFS Legal\" src=\"https://www.aonprd.com/images/PathfinderSocietySymbol.gif\" />Statistics</h3>\n<p><strong>Cost</strong>&nbsp;10 gp&nbsp;<strong>Weight</strong>&nbsp;3 lbs.</p>\n<p><strong>Category</strong>&nbsp;Ammunition;&nbsp;<strong>Proficiency</strong>&nbsp;Ammunition</p>\n<h3 class=\"framing\">Description</h3>\n<p>A metal cage behind this arrow's point contains flammable material. You take a&nbsp;<strong>-1 penalty on attack rolls</strong>&nbsp;when firing incendiary arrows. You can light up to six incendiary arrows as a full-round action (a standard action if you use a tindertwig) that provokes attacks of opportunity.</p>\n<p>Once lit, the arrow burns for 2 rounds. A lit incendiary arrow deals an additional&nbsp;<strong>1 point of fire damage</strong>. On a critical hit, the target must succeed at a DC 15 Reflex save or catch fire.</p>\n<p>Incendiary bolts exist for crossbows.</p>",
      "chat": "",
      "unidentified": ""
    },
    "tags": [],
    "quantity": 1,
    "weight": 0.15,
    "price": 0.5,
    "identified": true,
    "hp": {
      "max": 1,
      "value": 1
    },
    "hardness": 5,
    "carried": true,
    "unidentified": {
      "price": 0.5,
      "name": ""
    },
    "identifiedName": "Incendiary Crossbow Bolt",
    "cl": 0,
    "aura": {
      "custom": false,
      "school": ""
    },
    "changes": [],
    "changeFlags": {
      "loseDexToAC": false,
      "noEncumbrance": false,
      "mediumArmorFullSpeed": false,
      "heavyArmorFullSpeed": false,
      "noStr": false,
      "noDex": false,
      "oneInt": false,
      "oneWis": false,
      "oneCha": false
    },
    "contextNotes": [],
    "links": {
      "children": []
    },
    "tag": "",
    "useCustomTag": false,
    "flags": {
      "boolean": [],
      "dictionary": []
    },
    "subType": "ammo",
    "equipped": false,
    "damage": {
      "parts": [],
      "critParts": []
    },
    "conditionals": [],
    "uses": {
      "value": 0,
      "max": 0
    }
  },
  "flags": {},
  "img": "systems/pf1/icons/items/weapons/bolt.PNG",
  "effects": []
}