{
  "_id": "QtEyY1J0B6jTmEWQ",
  "name": "Rockwasp Bomb (Siege)",
  "permission": {
    "default": 0
  },
  "type": "loot",
  "data": {
    "description": {
      "value": "<p><strong>Source</strong> <em>Belkzen, Hold of the Orc Hordes pg. 39</em></p>\n<h3 class=\"framing\">Statistics</h3>\n<p><strong>Cost</strong> 2,000 gp <strong>Weight</strong> 100 lbs.</p>\n<p><strong>Category</strong> Ammunition; <strong>Proficiency</strong> Siege Engine</p>\n<h3 class=\"framing\">Description</h3>\n<p>Usable in catapults and trebuchets, this ammunition consists of a wooden crate packed with wax globes, from which a faint buzzing sound emanates.</p>\n<p>Visible as a dark shape at the center of each globe is a rat-sized hornet known as a rockwasp. The alchemical wax keeps the wasps immobilized, while tiny air holes allow them to breath.</p>\n<p>This ammunition <strong>deals only half damage</strong>, but releases a wasp swarm-two wasp swarms if used for a heavy catapult or heavy trebuchet. The wasps attack for 1 minute before dispersing.</p>\n<h3>Mishap</h3>\n<p>On a siege engine mishap, the wasps escape before the ammunition is launched.</p>",
      "chat": "",
      "unidentified": ""
    },
    "tags": [],
    "quantity": 1,
    "weight": 1000,
    "price": 2000,
    "identified": true,
    "hp": {
      "max": 1,
      "value": 1
    },
    "hardness": 5,
    "carried": true,
    "unidentified": {
      "price": 0,
      "name": ""
    },
    "identifiedName": "Rockwasp Bomb (Siege)",
    "cl": 0,
    "aura": {
      "custom": false,
      "school": ""
    },
    "changes": [],
    "changeFlags": {
      "loseDexToAC": false,
      "noEncumbrance": false,
      "mediumArmorFullSpeed": false,
      "heavyArmorFullSpeed": false
    },
    "contextNotes": [],
    "links": {
      "children": []
    },
    "tag": "rockwaspBombSiege",
    "useCustomTag": false,
    "flags": {
      "boolean": [],
      "dictionary": []
    },
    "subType": "misc",
    "equipped": true,
    "uses": {
      "value": 0,
      "max": 0
    },
    "conditionals": []
  },
  "flags": {},
  "img": "icons/weapons/ammunition/shot-round-brown.webp",
  "effects": []
}