{
  "_id": "ZfenXruSz57SKxHP",
  "name": "Weretiger",
  "permission": {
    "default": 0
  },
  "type": "npc",
  "data": {
    "abilities": {
      "str": {
        "total": 13,
        "mod": 1,
        "value": 13,
        "carryBonus": 0,
        "carryMultiplier": 1,
        "checkMod": 0,
        "damage": 0,
        "drain": 0,
        "penalty": 0,
        "userPenalty": 0,
        "base": 10,
        "baseMod": 0
      },
      "dex": {
        "total": 16,
        "mod": 3,
        "value": 16,
        "checkMod": 0,
        "damage": 0,
        "drain": 0,
        "penalty": 0,
        "userPenalty": 0,
        "base": 10,
        "baseMod": 0
      },
      "con": {
        "total": 12,
        "mod": 1,
        "value": 12,
        "checkMod": 0,
        "damage": 0,
        "drain": 0,
        "penalty": 0,
        "userPenalty": 0,
        "base": 10,
        "baseMod": 0
      },
      "int": {
        "total": 10,
        "mod": 0,
        "value": 10,
        "checkMod": 0,
        "damage": 0,
        "drain": 0,
        "penalty": 0,
        "userPenalty": 0,
        "base": 10,
        "baseMod": 0
      },
      "wis": {
        "total": 16,
        "mod": 3,
        "value": 16,
        "checkMod": 0,
        "damage": 0,
        "drain": 0,
        "penalty": 0,
        "userPenalty": 0,
        "base": 10,
        "baseMod": 0
      },
      "cha": {
        "total": 8,
        "mod": -1,
        "value": 8,
        "checkMod": 0,
        "damage": 0,
        "drain": 0,
        "penalty": 0,
        "userPenalty": 0,
        "base": 10,
        "baseMod": 0
      }
    },
    "resources": {},
    "attributes": {
      "encumbrance": {
        "level": 0,
        "levels": {
          "light": 50,
          "medium": 100,
          "heavy": 150,
          "carry": 300,
          "drag": 750
        },
        "carriedWeight": 0
      },
      "hpAbility": "con",
      "cmbAbility": "str",
      "hd": {
        "total": 4,
        "max": {
          "_deprecated": true,
          "value": 0
        }
      },
      "naturalAC": null,
      "ac": {
        "normal": {
          "value": 0,
          "total": 10
        },
        "touch": {
          "value": 0,
          "total": 10
        },
        "flatFooted": {
          "value": 0,
          "total": 10
        }
      },
      "bab": {
        "value": 3,
        "total": 3
      },
      "cmd": {
        "value": "4",
        "total": 10,
        "flatFootedTotal": 10
      },
      "cmb": {
        "value": 17,
        "total": 0
      },
      "sr": {
        "formula": 0,
        "total": 0
      },
      "saveNotes": "",
      "acNotes": "(+3 armor, +3 Dex)",
      "cmdNotes": "",
      "srNotes": "",
      "attack": {
        "general": 0,
        "shared": 0,
        "melee": 0,
        "ranged": 0,
        "meleeAbility": "str",
        "rangedAbility": "dex"
      },
      "damage": {
        "general": 0,
        "weapon": 0,
        "spell": 0
      },
      "maxDexBonus": null,
      "mDex": {
        "armorBonus": 0,
        "shieldBonus": 0
      },
      "acp": {
        "gear": 0,
        "encumbrance": 0,
        "total": 0,
        "armorBonus": 0,
        "shieldBonus": 0,
        "attackPenalty": 0
      },
      "energyDrain": 0,
      "quadruped": false,
      "savingThrows": {
        "fort": {
          "total": 2,
          "ability": "con"
        },
        "ref": {
          "total": 7,
          "ability": "dex"
        },
        "will": {
          "total": 4,
          "ability": "wis"
        }
      },
      "hp": {
        "value": 29,
        "max": 0,
        "temp": null,
        "nonlethal": null,
        "min": -100
      },
      "wounds": {
        "min": 0,
        "max": 24,
        "base": 0,
        "value": 24
      },
      "vigor": {
        "min": 0,
        "value": 18,
        "temp": 0,
        "max": 18,
        "base": 0
      },
      "woundThresholds": {
        "penalty": 0,
        "mod": 0,
        "level": 0,
        "override": -1
      },
      "init": {
        "value": 0,
        "bonus": 0,
        "total": 0,
        "ability": "dex"
      },
      "prof": 2,
      "speed": {
        "land": {
          "base": 30,
          "total": 30
        },
        "climb": {
          "base": 0,
          "total": 0
        },
        "swim": {
          "base": 0,
          "total": 0
        },
        "burrow": {
          "base": 0,
          "total": 0
        },
        "fly": {
          "base": 0,
          "total": 0,
          "maneuverability": "average"
        }
      },
      "conditions": {
        "bleed": false,
        "blind": false,
        "confused": false,
        "dazed": false,
        "dazzled": false,
        "deaf": false,
        "entangled": false,
        "fatigued": false,
        "frightened": false,
        "exhausted": false,
        "grappled": false,
        "helpless": false,
        "incorporeal": false,
        "invisible": false,
        "nauseated": false,
        "panicked": false,
        "paralyzed": false,
        "pinned": false,
        "prone": false,
        "shaken": false,
        "sickened": false,
        "staggered": false,
        "stunned": false,
        "fear": false
      },
      "spells": {
        "usedSpellbooks": [],
        "spellbooks": {
          "primary": {
            "altName": "",
            "castPerDayAllOffsetFormula": "",
            "preparedAllOffsetFormula": "",
            "name": "Primary",
            "casterType": "high",
            "class": "",
            "cl": {
              "base": 0,
              "value": 0,
              "total": 0,
              "formula": ""
            },
            "concentration": 0,
            "concentrationFormula": "",
            "concentrationNotes": "",
            "clNotes": "",
            "ability": "int",
            "autoSpellLevelCalculation": true,
            "autoSpellLevels": true,
            "arcaneSpellFailure": true,
            "hasCantrips": true,
            "spellPreparationMode": "spontaneous",
            "baseDCFormula": "10 + @sl + @ablMod",
            "spontaneous": false,
            "spellPoints": {
              "useSystem": false,
              "value": 0,
              "max": 0,
              "maxFormula": "",
              "restoreFormula": ""
            },
            "spells": {
              "spell0": {
                "castPerDayOffsetFormula": "",
                "preparedOffsetFormula": "",
                "value": 0,
                "max": 0,
                "base": null
              },
              "spell1": {
                "castPerDayOffsetFormula": "",
                "preparedOffsetFormula": "",
                "value": 0,
                "max": 0,
                "base": null
              },
              "spell2": {
                "castPerDayOffsetFormula": "",
                "preparedOffsetFormula": "",
                "value": 0,
                "max": 0,
                "base": ""
              },
              "spell3": {
                "castPerDayOffsetFormula": "",
                "preparedOffsetFormula": "",
                "value": 0,
                "max": 0,
                "base": ""
              },
              "spell4": {
                "castPerDayOffsetFormula": "",
                "preparedOffsetFormula": "",
                "value": 0,
                "max": 0,
                "base": ""
              },
              "spell5": {
                "castPerDayOffsetFormula": "",
                "preparedOffsetFormula": "",
                "value": 0,
                "max": 0,
                "base": ""
              },
              "spell6": {
                "castPerDayOffsetFormula": "",
                "preparedOffsetFormula": "",
                "value": 0,
                "max": 0,
                "base": ""
              },
              "spell7": {
                "castPerDayOffsetFormula": "",
                "preparedOffsetFormula": "",
                "value": 0,
                "max": 0,
                "base": ""
              },
              "spell8": {
                "castPerDayOffsetFormula": "",
                "preparedOffsetFormula": "",
                "value": 0,
                "max": 0,
                "base": ""
              },
              "spell9": {
                "castPerDayOffsetFormula": "",
                "preparedOffsetFormula": "",
                "value": 0,
                "max": 0,
                "base": ""
              }
            },
            "spellSlotAbilityBonusFormula": "",
            "domainSlotValue": 1
          },
          "secondary": {
            "altName": "",
            "castPerDayAllOffsetFormula": "",
            "preparedAllOffsetFormula": "",
            "name": "Secondary",
            "casterType": "high",
            "class": "",
            "cl": {
              "base": 0,
              "value": 0,
              "total": 0,
              "formula": ""
            },
            "concentration": 0,
            "concentrationFormula": "",
            "concentrationNotes": "",
            "clNotes": "",
            "ability": "int",
            "autoSpellLevelCalculation": true,
            "autoSpellLevels": true,
            "arcaneSpellFailure": true,
            "hasCantrips": true,
            "spellPreparationMode": "spontaneous",
            "baseDCFormula": "10 + @sl + @ablMod",
            "spontaneous": false,
            "spellPoints": {
              "useSystem": false,
              "value": 0,
              "max": 0,
              "maxFormula": "",
              "restoreFormula": ""
            },
            "spells": {
              "spell0": {
                "castPerDayOffsetFormula": "",
                "preparedOffsetFormula": "",
                "value": 0,
                "max": 0,
                "base": null
              },
              "spell1": {
                "castPerDayOffsetFormula": "",
                "preparedOffsetFormula": "",
                "value": 0,
                "max": 0,
                "base": null
              },
              "spell2": {
                "castPerDayOffsetFormula": "",
                "preparedOffsetFormula": "",
                "value": 0,
                "max": 0,
                "base": ""
              },
              "spell3": {
                "castPerDayOffsetFormula": "",
                "preparedOffsetFormula": "",
                "value": 0,
                "max": 0,
                "base": ""
              },
              "spell4": {
                "castPerDayOffsetFormula": "",
                "preparedOffsetFormula": "",
                "value": 0,
                "max": 0,
                "base": ""
              },
              "spell5": {
                "castPerDayOffsetFormula": "",
                "preparedOffsetFormula": "",
                "value": 0,
                "max": 0,
                "base": ""
              },
              "spell6": {
                "castPerDayOffsetFormula": "",
                "preparedOffsetFormula": "",
                "value": 0,
                "max": 0,
                "base": ""
              },
              "spell7": {
                "castPerDayOffsetFormula": "",
                "preparedOffsetFormula": "",
                "value": 0,
                "max": 0,
                "base": ""
              },
              "spell8": {
                "castPerDayOffsetFormula": "",
                "preparedOffsetFormula": "",
                "value": 0,
                "max": 0,
                "base": ""
              },
              "spell9": {
                "castPerDayOffsetFormula": "",
                "preparedOffsetFormula": "",
                "value": 0,
                "max": 0,
                "base": ""
              }
            },
            "spellSlotAbilityBonusFormula": "",
            "domainSlotValue": 1
          },
          "tertiary": {
            "altName": "",
            "castPerDayAllOffsetFormula": "",
            "preparedAllOffsetFormula": "",
            "name": "Tertiary",
            "casterType": "high",
            "class": "",
            "cl": {
              "base": 0,
              "value": 0,
              "total": 0,
              "formula": ""
            },
            "concentration": 0,
            "concentrationFormula": "",
            "concentrationNotes": "",
            "clNotes": "",
            "ability": "int",
            "autoSpellLevelCalculation": true,
            "autoSpellLevels": true,
            "arcaneSpellFailure": true,
            "hasCantrips": true,
            "spellPreparationMode": "spontaneous",
            "baseDCFormula": "10 + @sl + @ablMod",
            "spontaneous": false,
            "spellPoints": {
              "useSystem": false,
              "value": 0,
              "max": 0,
              "maxFormula": "",
              "restoreFormula": ""
            },
            "spells": {
              "spell0": {
                "castPerDayOffsetFormula": "",
                "preparedOffsetFormula": "",
                "value": 0,
                "max": 0,
                "base": null
              },
              "spell1": {
                "castPerDayOffsetFormula": "",
                "preparedOffsetFormula": "",
                "value": 0,
                "max": 0,
                "base": null
              },
              "spell2": {
                "castPerDayOffsetFormula": "",
                "preparedOffsetFormula": "",
                "value": 0,
                "max": 0,
                "base": ""
              },
              "spell3": {
                "castPerDayOffsetFormula": "",
                "preparedOffsetFormula": "",
                "value": 0,
                "max": 0,
                "base": ""
              },
              "spell4": {
                "castPerDayOffsetFormula": "",
                "preparedOffsetFormula": "",
                "value": 0,
                "max": 0,
                "base": ""
              },
              "spell5": {
                "castPerDayOffsetFormula": "",
                "preparedOffsetFormula": "",
                "value": 0,
                "max": 0,
                "base": ""
              },
              "spell6": {
                "castPerDayOffsetFormula": "",
                "preparedOffsetFormula": "",
                "value": 0,
                "max": 0,
                "base": ""
              },
              "spell7": {
                "castPerDayOffsetFormula": "",
                "preparedOffsetFormula": "",
                "value": 0,
                "max": 0,
                "base": ""
              },
              "spell8": {
                "castPerDayOffsetFormula": "",
                "preparedOffsetFormula": "",
                "value": 0,
                "max": 0,
                "base": ""
              },
              "spell9": {
                "castPerDayOffsetFormula": "",
                "preparedOffsetFormula": "",
                "value": 0,
                "max": 0,
                "base": ""
              }
            },
            "spellSlotAbilityBonusFormula": "",
            "domainSlotValue": 1
          },
          "spelllike": {
            "altName": "",
            "castPerDayAllOffsetFormula": "",
            "preparedAllOffsetFormula": "",
            "name": "Spell-likes",
            "casterType": "high",
            "class": "_hd",
            "cl": {
              "base": 0,
              "value": 0,
              "total": 1,
              "formula": ""
            },
            "concentration": 0,
            "concentrationFormula": "",
            "concentrationNotes": "",
            "clNotes": "",
            "ability": "cha",
            "autoSpellLevelCalculation": true,
            "autoSpellLevels": true,
            "arcaneSpellFailure": true,
            "hasCantrips": true,
            "spellPreparationMode": "spontaneous",
            "baseDCFormula": "10 + @sl + @ablMod",
            "spontaneous": false,
            "spellPoints": {
              "useSystem": false,
              "value": 0,
              "max": 0,
              "maxFormula": "",
              "restoreFormula": ""
            },
            "spells": {
              "spell0": {
                "castPerDayOffsetFormula": "",
                "preparedOffsetFormula": "",
                "value": 0,
                "max": 0,
                "base": null
              },
              "spell1": {
                "castPerDayOffsetFormula": "",
                "preparedOffsetFormula": "",
                "value": 0,
                "max": 0,
                "base": null
              },
              "spell2": {
                "castPerDayOffsetFormula": "",
                "preparedOffsetFormula": "",
                "value": 0,
                "max": 0,
                "base": null
              },
              "spell3": {
                "castPerDayOffsetFormula": "",
                "preparedOffsetFormula": "",
                "value": 0,
                "max": 0,
                "base": ""
              },
              "spell4": {
                "castPerDayOffsetFormula": "",
                "preparedOffsetFormula": "",
                "value": 0,
                "max": 0,
                "base": ""
              },
              "spell5": {
                "castPerDayOffsetFormula": "",
                "preparedOffsetFormula": "",
                "value": 0,
                "max": 0,
                "base": ""
              },
              "spell6": {
                "castPerDayOffsetFormula": "",
                "preparedOffsetFormula": "",
                "value": 0,
                "max": 0,
                "base": ""
              },
              "spell7": {
                "castPerDayOffsetFormula": "",
                "preparedOffsetFormula": "",
                "value": 0,
                "max": 0,
                "base": ""
              },
              "spell8": {
                "castPerDayOffsetFormula": "",
                "preparedOffsetFormula": "",
                "value": 0,
                "max": 0,
                "base": ""
              },
              "spell9": {
                "castPerDayOffsetFormula": "",
                "preparedOffsetFormula": "",
                "value": 0,
                "max": 0,
                "base": ""
              }
            },
            "spellSlotAbilityBonusFormula": "",
            "domainSlotValue": 1
          }
        },
        "concentration": {
          "bonus": 0,
          "context": ""
        }
      },
      "spellcasting": {
        "_deprecated": true
      },
      "spelldc": {
        "_deprecated": true
      },
      "spellLevel": 0,
      "cmbNotes": "",
      "mods": {
        "skills": {}
      },
      "creatureType": "humanoid"
    },
    "details": {
      "level": {
        "value": 4,
        "min": 0,
        "max": 40
      },
      "mythicTier": 0,
      "bonusFeatFormula": "",
      "alignment": "ne",
      "biography": {
        "value": "",
        "public": ""
      },
      "notes": {
        "value": "",
        "public": ""
      },
      "bonusSkillRankFormula": "",
      "tooltip": {
        "name": "",
        "hideHeld": false,
        "hideArmor": false,
        "hideBuffs": false,
        "hideConditions": false,
        "hideClothing": false,
        "hideName": false
      },
      "type": "",
      "environment": "",
      "cr": {
        "base": 4,
        "total": 4
      },
      "xp": {
        "value": "1200"
      }
    },
    "skills": {
      "acr": {
        "value": 0,
        "ability": "dex",
        "rt": false,
        "acp": true,
        "rank": 3,
        "mod": 9,
        "background": false,
        "notes": "",
        "cs": true,
        "changeBonus": 0
      },
      "apr": {
        "value": 0,
        "ability": "int",
        "rt": false,
        "acp": false,
        "rank": 0,
        "mod": 0,
        "background": true,
        "notes": "",
        "cs": true,
        "changeBonus": 0
      },
      "art": {
        "value": 0,
        "ability": "int",
        "rt": false,
        "acp": false,
        "rank": 0,
        "mod": 0,
        "background": true,
        "notes": "",
        "subSkills": {},
        "cs": false,
        "changeBonus": 0
      },
      "blf": {
        "value": 0,
        "ability": "cha",
        "rt": false,
        "acp": false,
        "rank": 0,
        "mod": -1,
        "background": false,
        "notes": "",
        "cs": true,
        "changeBonus": 0
      },
      "clm": {
        "value": 0,
        "ability": "str",
        "rt": false,
        "acp": true,
        "rank": 3,
        "mod": 7,
        "background": false,
        "notes": "",
        "cs": true,
        "changeBonus": 0
      },
      "crf": {
        "value": 0,
        "ability": "int",
        "rt": false,
        "acp": false,
        "rank": 0,
        "mod": 0,
        "background": true,
        "notes": "",
        "subSkills": {},
        "cs": true,
        "changeBonus": 0
      },
      "dip": {
        "value": 0,
        "ability": "cha",
        "rt": false,
        "acp": false,
        "rank": 0,
        "mod": -1,
        "background": false,
        "notes": "",
        "cs": true,
        "changeBonus": 0
      },
      "dev": {
        "value": 0,
        "ability": "dex",
        "rt": true,
        "acp": true,
        "rank": 0,
        "mod": 3,
        "background": false,
        "notes": "",
        "cs": true,
        "changeBonus": 0
      },
      "dis": {
        "value": 0,
        "ability": "cha",
        "rt": false,
        "acp": false,
        "rank": 0,
        "mod": -1,
        "background": false,
        "notes": "",
        "cs": true,
        "changeBonus": 0
      },
      "esc": {
        "value": 0,
        "ability": "dex",
        "rt": false,
        "acp": true,
        "rank": 0,
        "mod": 3,
        "background": false,
        "notes": "",
        "cs": true,
        "changeBonus": 0
      },
      "fly": {
        "value": 0,
        "ability": "dex",
        "rt": false,
        "acp": true,
        "rank": 0,
        "mod": 3,
        "background": false,
        "notes": "",
        "cs": false,
        "changeBonus": 0
      },
      "han": {
        "value": 0,
        "ability": "cha",
        "rt": true,
        "acp": false,
        "rank": 1,
        "mod": 3,
        "background": true,
        "notes": "",
        "cs": true,
        "changeBonus": 0
      },
      "hea": {
        "value": 0,
        "ability": "wis",
        "rt": false,
        "acp": false,
        "rank": 0,
        "mod": 3,
        "background": false,
        "notes": "",
        "cs": true,
        "changeBonus": 0
      },
      "int": {
        "value": 0,
        "ability": "cha",
        "rt": false,
        "acp": false,
        "rank": 4,
        "mod": 6,
        "background": false,
        "notes": "",
        "cs": true,
        "changeBonus": 0
      },
      "kar": {
        "value": 0,
        "ability": "int",
        "rt": true,
        "acp": false,
        "rank": 0,
        "mod": 0,
        "background": false,
        "notes": "",
        "cs": false,
        "changeBonus": 0
      },
      "kdu": {
        "value": 0,
        "ability": "int",
        "rt": true,
        "acp": false,
        "rank": 0,
        "mod": 0,
        "background": false,
        "notes": "",
        "cs": true,
        "changeBonus": 0
      },
      "ken": {
        "value": 0,
        "ability": "int",
        "rt": true,
        "acp": false,
        "rank": 0,
        "mod": 0,
        "background": true,
        "notes": "",
        "cs": false,
        "changeBonus": 0
      },
      "kge": {
        "value": 0,
        "ability": "int",
        "rt": true,
        "acp": false,
        "rank": 0,
        "mod": 0,
        "background": true,
        "notes": "",
        "cs": false,
        "changeBonus": 0
      },
      "khi": {
        "value": 0,
        "ability": "int",
        "rt": true,
        "acp": false,
        "rank": 0,
        "mod": 0,
        "background": true,
        "notes": "",
        "cs": false,
        "changeBonus": 0
      },
      "klo": {
        "value": 0,
        "ability": "int",
        "rt": true,
        "acp": false,
        "rank": 0,
        "mod": 0,
        "background": false,
        "notes": "",
        "cs": true,
        "changeBonus": 0
      },
      "kna": {
        "value": 0,
        "ability": "int",
        "rt": true,
        "acp": false,
        "rank": 0,
        "mod": 0,
        "background": false,
        "notes": "",
        "cs": false,
        "changeBonus": 0
      },
      "kno": {
        "value": 0,
        "ability": "int",
        "rt": true,
        "acp": false,
        "rank": 0,
        "mod": 0,
        "background": true,
        "notes": "",
        "cs": false,
        "changeBonus": 0
      },
      "kpl": {
        "value": 0,
        "ability": "int",
        "rt": true,
        "acp": false,
        "rank": 0,
        "mod": 0,
        "background": false,
        "notes": "",
        "cs": false,
        "changeBonus": 0
      },
      "kre": {
        "value": 0,
        "ability": "int",
        "rt": true,
        "acp": false,
        "rank": 0,
        "mod": 0,
        "background": false,
        "notes": "",
        "cs": false,
        "changeBonus": 0
      },
      "lin": {
        "value": 0,
        "ability": "int",
        "rt": true,
        "acp": false,
        "rank": 0,
        "mod": 0,
        "background": true,
        "notes": "",
        "cs": true,
        "changeBonus": 0
      },
      "lor": {
        "value": 0,
        "ability": "int",
        "rt": true,
        "acp": false,
        "rank": 0,
        "mod": 0,
        "background": true,
        "notes": "",
        "subSkills": {},
        "cs": false,
        "changeBonus": 0
      },
      "per": {
        "value": 0,
        "ability": "wis",
        "rt": false,
        "acp": false,
        "rank": 4,
        "mod": 10,
        "background": false,
        "notes": "",
        "cs": true,
        "changeBonus": 0
      },
      "prf": {
        "value": 0,
        "ability": "cha",
        "rt": false,
        "acp": false,
        "rank": 0,
        "mod": -1,
        "background": true,
        "notes": "",
        "subSkills": {},
        "cs": true,
        "changeBonus": 0
      },
      "pro": {
        "value": 0,
        "ability": "wis",
        "rt": true,
        "acp": false,
        "rank": 0,
        "mod": 3,
        "background": true,
        "notes": "",
        "subSkills": {},
        "cs": true,
        "changeBonus": 0
      },
      "rid": {
        "value": 0,
        "ability": "dex",
        "rt": false,
        "acp": true,
        "rank": 0,
        "mod": 3,
        "background": false,
        "notes": "",
        "cs": true,
        "changeBonus": 0
      },
      "sen": {
        "value": 0,
        "ability": "wis",
        "rt": false,
        "acp": false,
        "rank": 4,
        "mod": 10,
        "background": false,
        "notes": "",
        "cs": true,
        "changeBonus": 0
      },
      "slt": {
        "value": 0,
        "ability": "dex",
        "rt": true,
        "acp": true,
        "rank": 0,
        "mod": 3,
        "background": true,
        "notes": "",
        "cs": true,
        "changeBonus": 0
      },
      "spl": {
        "value": 0,
        "ability": "int",
        "rt": true,
        "acp": false,
        "rank": 0,
        "mod": 0,
        "background": false,
        "notes": "",
        "cs": false,
        "changeBonus": 0
      },
      "ste": {
        "value": 0,
        "ability": "dex",
        "rt": false,
        "acp": true,
        "rank": 6,
        "mod": 12,
        "background": false,
        "notes": "",
        "cs": true,
        "changeBonus": 0
      },
      "sur": {
        "value": 0,
        "ability": "wis",
        "rt": false,
        "acp": false,
        "rank": 1,
        "mod": 7,
        "background": false,
        "notes": "",
        "cs": true,
        "changeBonus": 0
      },
      "swm": {
        "value": 0,
        "ability": "str",
        "rt": false,
        "acp": true,
        "rank": 3,
        "mod": 7,
        "background": false,
        "notes": "",
        "cs": true,
        "changeBonus": 0
      },
      "umd": {
        "value": 0,
        "ability": "cha",
        "rt": true,
        "acp": false,
        "rank": 0,
        "mod": -1,
        "background": false,
        "notes": "",
        "cs": true,
        "changeBonus": 0
      }
    },
    "customSkills": {},
    "traits": {
      "size": "med",
      "senses": "low-light vision, scent; Perception +10 \n",
      "dr": "",
      "eres": "",
      "cres": "",
      "regen": "",
      "fastHealing": "",
      "languages": {
        "value": [
          "common"
        ],
        "custom": ""
      },
      "di": {
        "value": [],
        "custom": ""
      },
      "dv": {
        "value": [],
        "custom": ""
      },
      "ci": {
        "value": [],
        "custom": ""
      },
      "perception": {
        "_deprecated": true
      },
      "stature": "tall"
    },
    "currency": {
      "pp": 0,
      "gp": 0,
      "sp": 0,
      "cp": 0
    },
    "altCurrency": {
      "pp": 0,
      "gp": 0,
      "sp": 0,
      "cp": 0
    },
    "classes": {
      "rogue": {
        "level": 4,
        "name": "rogue",
        "hd": 8,
        "bab": "med",
        "hp": false,
        "savingThrows": {
          "fort": 0,
          "ref": 2,
          "will": 0
        },
        "fc": {
          "hp": 0,
          "skill": 0,
          "alt": 0
        }
      }
    }
  },
  "sort": 100001,
  "flags": {
    "pf1": {}
  },
  "img": "systems/pf1/icons/races/human.jpg",
  "token": {
    "flags": {
      "pf1": {
        "lowLightVision": false
      }
    },
    "name": "Weretiger",
    "displayName": 0,
    "img": "systems/pf1/icons/races/human.jpg",
    "tint": null,
    "width": 1,
    "height": 1,
    "scale": 1,
    "lockRotation": false,
    "rotation": 0,
    "vision": true,
    "dimSight": 0,
    "brightSight": 0,
    "dimLight": 0,
    "brightLight": 0,
    "sightAngle": 360,
    "lightAngle": 360,
    "lightAlpha": 1,
    "lightAnimation": {
      "speed": 5,
      "intensity": 5
    },
    "actorId": "ZfenXruSz57SKxHP",
    "actorLink": false,
    "disposition": -1,
    "displayBars": 0,
    "bar1": {
      "attribute": "attributes.hp"
    },
    "bar2": {},
    "randomImg": false
  },
  "items": [
    {
      "_id": "JZnWzIvSQ8reFlEu",
      "name": "Rogue",
      "type": "class",
      "data": {
        "description": {
          "value": "<p>Life is an endless adventure for those who live by their wits. Ever just one step ahead of danger, rogues bank on their cunning, skill, and charm to bend fate to their favor. Never knowing what to expect, they prepare for everything, becoming masters of a wide variety of skills, training themselves to be adept manipulators, agile acrobats, shadowy stalkers, or masters of any of dozens of other professions or talents. Thieves and gamblers, fast talkers and diplomats, bandits and bounty hunters, and explorers and investigators all might be considered rogues, as well as countless other professions that rely upon wits, prowess, or luck. Although many rogues favor cities and the innumerable opportunities of civilization, some embrace lives on the road, journeying far, meeting exotic people, and facing fantastic danger in pursuit of equally fantastic riches. In the end, any who desire to shape their fates and live life on their own terms might come to be called rogues.</p>\n<p>Role: Rogues excel at moving about unseen and catching foes unaware, and tend to avoid head-to-head combat. Their varied skills and abilities allow them to be highly versatile, with great variations in expertise existing between different rogues. Most, however, excel in overcoming hindrances of all types, from unlocking doors and disarming traps to outwitting magical hazards and conning dull-witted opponents.</p>\n<p><strong>Alignment</strong>: Any</p>\n<p><strong>Hit Die</strong>: d8</p>\n<p><strong>Starting Wealth</strong>: 4d6 × 10 gp (average 140 gp.) In addition, each character begins play with an outfit worth 10 gp or less.</p>\n<h3><strong><span id=\"Class_Skills\">Class Skills</span></strong></h3>\n<p>The rogue’s class skills are <a href=\"https://www.d20pfsrd.com/skills/acrobatics\">Acrobatics</a>&nbsp;(<a href=\"https://www.d20pfsrd.com/basics-ability-scores/ability-scores#TOC-Dexterity-Dex-\">Dex</a>), <a href=\"https://www.d20pfsrd.com/skills/appraise\">Appraise</a>&nbsp;(<a href=\"https://www.d20pfsrd.com/basics-ability-scores/ability-scores#TOC-Intelligence-Int-\">Int</a>), <a href=\"https://www.d20pfsrd.com/skills/bluff\">Bluff</a>&nbsp;(<a href=\"https://www.d20pfsrd.com/basics-ability-scores/ability-scores#TOC-Charisma-Cha-\">Cha</a>), <a href=\"https://www.d20pfsrd.com/skills/climb\">Climb</a>&nbsp;(<a href=\"https://www.d20pfsrd.com/basics-ability-scores/ability-scores#TOC-Strength-Str-\">Str</a>), <a href=\"https://www.d20pfsrd.com/skills/craft\">Craft</a>&nbsp;(<a href=\"https://www.d20pfsrd.com/basics-ability-scores/ability-scores#TOC-Intelligence-Int-\">Int</a>), <a href=\"https://www.d20pfsrd.com/skills/diplomacy\">Diplomacy</a>&nbsp;(<a href=\"https://www.d20pfsrd.com/basics-ability-scores/ability-scores#TOC-Charisma-Cha-\">Cha</a>), <a href=\"https://www.d20pfsrd.com/skills/disable-device\">Disable Device</a>&nbsp;(<a href=\"https://www.d20pfsrd.com/basics-ability-scores/ability-scores#TOC-Dexterity-Dex-\">Dex</a>), <a href=\"https://www.d20pfsrd.com/skills/disguise\">Disguise</a>&nbsp;(<a href=\"https://www.d20pfsrd.com/basics-ability-scores/ability-scores#TOC-Charisma-Cha-\">Cha</a>), <a href=\"https://www.d20pfsrd.com/skills/escape-artist\">Escape Artist</a>&nbsp;(<a href=\"https://www.d20pfsrd.com/basics-ability-scores/ability-scores#TOC-Dexterity-Dex-\">Dex</a>), <a href=\"https://www.d20pfsrd.com/skills/intimidate\">Intimidate</a>&nbsp;(<a href=\"https://www.d20pfsrd.com/basics-ability-scores/ability-scores#TOC-Charisma-Cha-\">Cha</a>), <a href=\"https://www.d20pfsrd.com/skills/knowledge\">Knowledge</a>&nbsp;(dungeoneering) (<a href=\"https://www.d20pfsrd.com/basics-ability-scores/ability-scores#TOC-Intelligence-Int-\">Int</a>), <a href=\"https://www.d20pfsrd.com/skills/knowledge\">Knowledge</a>&nbsp;(local) (<a href=\"https://www.d20pfsrd.com/basics-ability-scores/ability-scores#TOC-Intelligence-Int-\">Int</a>), <a href=\"https://www.d20pfsrd.com/skills/linguistics\">Linguistics</a>&nbsp;(<a href=\"https://www.d20pfsrd.com/basics-ability-scores/ability-scores#TOC-Intelligence-Int-\">Int</a>), <a href=\"https://www.d20pfsrd.com/skills/perception\">Perception</a>&nbsp;(<a href=\"https://www.d20pfsrd.com/basics-ability-scores/ability-scores#TOC-Wisdom-Wis-\">Wis</a>), <a href=\"https://www.d20pfsrd.com/skills/perform\">Perform</a>&nbsp;(<a href=\"https://www.d20pfsrd.com/basics-ability-scores/ability-scores#TOC-Charisma-Cha-\">Cha</a>), <a href=\"https://www.d20pfsrd.com/skills/profession\">Profession</a>&nbsp;(<a href=\"https://www.d20pfsrd.com/basics-ability-scores/ability-scores#TOC-Wisdom-Wis-\">Wis</a>), <a href=\"https://www.d20pfsrd.com/skills/sense-motive\">Sense Motive</a>&nbsp;(<a href=\"https://www.d20pfsrd.com/basics-ability-scores/ability-scores#TOC-Wisdom-Wis-\">Wis</a>), <a href=\"https://www.d20pfsrd.com/skills/sleight-of-hand\">Sleight of Hand</a>&nbsp;(<a href=\"https://www.d20pfsrd.com/basics-ability-scores/ability-scores#TOC-Dexterity-Dex-\">Dex</a>), <a href=\"https://www.d20pfsrd.com/skills/stealth\">Stealth</a>&nbsp;(<a href=\"https://www.d20pfsrd.com/basics-ability-scores/ability-scores#TOC-Dexterity-Dex-\">Dex</a>), <a href=\"https://www.d20pfsrd.com/skills/swim\">Swim</a>&nbsp;(<a href=\"https://www.d20pfsrd.com/basics-ability-scores/ability-scores#TOC-Strength-Str-\">Str</a>), and <a href=\"https://www.d20pfsrd.com/skills/use-magic-device\">Use Magic Device</a>&nbsp;(<a href=\"https://www.d20pfsrd.com/basics-ability-scores/ability-scores#TOC-Charisma-Cha-\">Cha</a>).</p>\n<p><strong>Skill Ranks per Level</strong>: 8 +&nbsp;<a href=\"https://www.d20pfsrd.com/basics-ability-scores/ability-scores#TOC-Intelligence-Int-\">Int</a>&nbsp;modifier.</p>",
          "chat": "",
          "unidentified": ""
        },
        "tags": [],
        "changes": [],
        "changeFlags": {
          "loseDexToAC": false,
          "noEncumbrance": false,
          "mediumArmorFullSpeed": false,
          "heavyArmorFullSpeed": false,
          "noStr": false,
          "noDex": false,
          "oneInt": false,
          "oneWis": false,
          "oneCha": false
        },
        "links": "",
        "tag": "rogue",
        "useCustomTag": false,
        "armorProf": {
          "value": [],
          "custom": ""
        },
        "weaponProf": {
          "value": [],
          "custom": ""
        },
        "flags": {
          "boolean": [],
          "dictionary": []
        },
        "classType": "base",
        "levels": {
          "value": 0,
          "_deprecated": true
        },
        "level": 4,
        "hd": 8,
        "hp": 18,
        "bab": "med",
        "skillsPerLevel": 8,
        "savingThrows": {
          "fort": {
            "value": "low"
          },
          "ref": {
            "value": "high"
          },
          "will": {
            "value": "low"
          }
        },
        "fc": {
          "hp": {
            "value": 0
          },
          "skill": {
            "value": 0
          },
          "alt": {
            "value": 0
          }
        },
        "classSkills": {
          "acr": true,
          "apr": true,
          "art": false,
          "blf": true,
          "clm": true,
          "crf": true,
          "dip": true,
          "dev": true,
          "dis": true,
          "esc": true,
          "fly": false,
          "han": false,
          "hea": false,
          "int": true,
          "kar": false,
          "kdu": true,
          "ken": false,
          "kge": false,
          "khi": false,
          "klo": true,
          "kna": false,
          "kno": false,
          "kpl": false,
          "kre": false,
          "lin": true,
          "lor": false,
          "per": true,
          "prf": true,
          "pro": true,
          "rid": false,
          "sen": true,
          "slt": true,
          "spl": false,
          "ste": true,
          "sur": false,
          "swm": true,
          "umd": true
        },
        "extraDescription": {
          "value": "<h2>Weapon and Armor Proficiency</h2>\n<p>Rogues are proficient with all&nbsp;<a href=\"https://www.d20pfsrd.com/equipment/weapons#simple-martial-and-exotic-weapons\">simple weapons</a>, plus the hand crossbow, rapier, sap, shortbow, and short sword. They are proficient with light&nbsp;<a href=\"https://www.d20pfsrd.com/basics-ability-scores/glossary#TOC-Armor-Bonus\">armor</a>, but not with shields.</p>\n<h2>Sneak Attack</h2>\n<p>If a rogue can catch an opponent when he is unable to defend himself effectively from her attack, she can strike a vital spot for extra damage.</p>\n<p>The rogue’s attack deals extra damage anytime her target would be denied a&nbsp;<a href=\"https://www.d20pfsrd.com/basics-ability-scores/ability-scores#TOC-Dexterity-Dex-\">Dexterity</a>&nbsp;bonus to&nbsp;<a href=\"https://www.d20pfsrd.com/gamemastering/combat#TOC-Armor-Class\">AC</a>&nbsp;(whether the target actually has a&nbsp;<a href=\"https://www.d20pfsrd.com/basics-ability-scores/ability-scores#TOC-Dexterity-Dex-\">Dexterity</a>&nbsp;bonus or not), or when the rogue flanks her target. This extra damage is 1d6 at 1st level, and increases by 1d6 every two rogue levels thereafter. Should the rogue score a&nbsp;<a href=\"https://www.d20pfsrd.com/gamemastering/combat#critical-hits\">critical hit</a>&nbsp;with a sneak attack, this extra damage is not multiplied. Ranged attacks can count as sneak attacks only if the target is within 30 feet.</p>\n<p>With a weapon that deals nonlethal damage (like a sap, whip, or an unarmed strike), a rogue can make a sneak attack that deals nonlethal damage instead of lethal damage. She cannot use a weapon that deals lethal damage to deal nonlethal damage in a sneak attack, not even with the usual –4 penalty.</p>\n<p>The rogue must be able to see the target well enough to pick out a vital spot and must be able to reach such a spot. A rogue cannot sneak attack while striking a creature with concealment.</p>\n<h2>Trapfinding</h2>\n<p>A rogue adds 1/2 her level to&nbsp;<a href=\"https://www.d20pfsrd.com/skills/perception\">Perception</a>&nbsp;<a href=\"https://www.d20pfsrd.com/skills#skill-checks\">skill checks</a>&nbsp;made to locate traps and to&nbsp;<a href=\"https://www.d20pfsrd.com/skills/disable-device\">Disable Device</a>&nbsp;<a href=\"https://www.d20pfsrd.com/skills#skill-checks\">skill checks</a>&nbsp;(minimum +1). A rogue can use&nbsp;<a href=\"https://www.d20pfsrd.com/skills/disable-device\">Disable Device</a>&nbsp;to disarm magic traps.</p>\n<h2>Evasion (Ex)</h2>\n<p>At 2nd level and higher, a rogue can avoid even magical and unusual attacks with great agility. If she makes a successful&nbsp;<a href=\"https://www.d20pfsrd.com/gamemastering/combat#TOC-Reflex\">Reflex</a>&nbsp;<a href=\"https://www.d20pfsrd.com/gamemastering/combat#saving-throws\">saving throw</a>&nbsp;against an attack that normally deals half damage on a successful save, she instead takes no damage. Evasion can be used only if the rogue is wearing light armor or no armor. A&nbsp;<a href=\"https://www.d20pfsrd.com/basics-ability-scores/glossary#helpless\">helpless</a>&nbsp;rogue does not gain the benefit of evasion.</p>\n<h2>Rogue Talents</h2>\n<p>As a rogue gains experience, she learns a number of talents that aid her and confound her foes. Starting at 2nd level, a rogue gains one rogue talent. She gains an additional rogue talent for every 2 levels of rogue attained after 2nd level. A rogue cannot select an individual talent more than once.</p>\n<p>Talents marked with an asterisk add effects to a rogue’s sneak attack. Only one of these talents can be applied to an individual attack and the decision must be made before the attack roll is made.</p>\n<p>A rogue cannot choose a ninja trick with the same name as a rogue talent.</p>\n<ul>\n<li>A complete listing of rogue talents can be found here:&nbsp;<a href=\"https://www.d20pfsrd.com/classes/core-classes/rogue/rogue-talents/\">Rogue Talents</a></li>\n</ul>\n<h2>Trap Sense (Ex)</h2>\n<p>At 3rd level, a rogue gains an intuitive sense that alerts her to danger from traps, giving her a +1 bonus on&nbsp;<a href=\"https://www.d20pfsrd.com/gamemastering/combat#TOC-Reflex\">Reflex saves</a>&nbsp;made to avoid traps and a +1&nbsp;<a href=\"https://www.d20pfsrd.com/gamemastering/combat#dodge-bonuses\">dodge bonus</a>&nbsp;to&nbsp;<a href=\"https://www.d20pfsrd.com/gamemastering/combat#TOC-Armor-Class\">AC</a>&nbsp;against attacks made by traps. These bonuses rise to +2 when the rogue reaches 6th level, to +3 when she reaches 9th level, to +4 when she reaches 12th level, to +5 at 15th, and to +6 at 18th level. Trap sense bonuses gained from multiple classes stack.</p>\n<h2>Uncanny Dodge (Ex)</h2>\n<p>Starting at 4th level, a rogue can react to danger before her senses would normally allow her to do so. She cannot be caught&nbsp;<a href=\"https://www.d20pfsrd.com/gamemastering/conditions#TOC-Flat-Footed\">flat-footed</a>, nor does she lose her&nbsp;<a href=\"https://www.d20pfsrd.com/basics-ability-scores/ability-scores#TOC-Dexterity-Dex-\">Dex</a>&nbsp;bonus to AC if the attacker is&nbsp;<a href=\"https://www.d20pfsrd.com/basics-ability-scores/glossary#invisible\">invisible</a>. She still loses her&nbsp;<a href=\"https://www.d20pfsrd.com/basics-ability-scores/ability-scores#TOC-Dexterity-Dex-\">Dexterity</a>&nbsp;bonus to&nbsp;<a href=\"https://www.d20pfsrd.com/gamemastering/combat#TOC-Armor-Class\">AC</a>&nbsp;if immobilized. A rogue with this ability can still lose her&nbsp;<a href=\"https://www.d20pfsrd.com/basics-ability-scores/ability-scores#TOC-Dexterity-Dex-\">Dexterity</a>&nbsp;bonus to&nbsp;<a href=\"https://www.d20pfsrd.com/gamemastering/combat#TOC-Armor-Class\">AC</a>&nbsp;if an opponent successfully uses the feint action (see&nbsp;<a href=\"https://www.d20pfsrd.com/gamemastering/combat\">Combat</a>) against her.</p>\n<p>If a rogue already has uncanny dodge from a different class, she automatically gains improved uncanny dodge (see below) instead.</p>\n<h2>Improved Uncanny Dodge (Ex)</h2>\n<p>A rogue of 8th level or higher can no longer be flanked.</p>\n<p>This defense denies another rogue the ability to sneak attack the character by flanking her, unless the attacker has at least four more rogue levels than the target does.</p>\n<p>If a character already has uncanny dodge (see above) from another class, the levels from the classes that grant uncanny dodge stack to determine the minimum rogue level required to flank the character.</p>\n<h2>Advanced Talents</h2>\n<p>At 10th level, and every two levels thereafter, a rogue can choose one of the following advanced talents in place of a rogue talent.</p>\n<ul>\n<li>A complete listing of advanced rogue talents can be found here:&nbsp;<a href=\"https://www.d20pfsrd.com/classes/core-classes/rogue/rogue-talents/#TABLE-Rogue-Adv-Talents\">Rogue Advanced Talents</a></li>\n</ul>\n<h2>Master Strike (Ex)</h2>\n<p>Upon reaching 20th level, a rogue becomes incredibly deadly when dealing sneak attack damage. Each time the rogue deals sneak attack damage, she can choose one of the following three effects:</p>\n<p>The target can be…</p>\n<ul>\n<li>put to sleep for 1d4 hours</li>\n<li><a href=\"https://www.d20pfsrd.com/gamemastering/conditions#TOC-Paralyzed\">paralyzed</a>&nbsp;for 2d6 rounds, or</li>\n<li>slain</li>\n</ul>\n<p>Regardless of the effect chosen, the target receives a&nbsp;<a href=\"https://www.d20pfsrd.com/gamemastering/combat#fortitude\">Fortitude</a>&nbsp;save to negate the additional effect. The DC of this save is equal to 10 + 1/2 the rogue’s level + the rogue’s&nbsp;<a href=\"https://www.d20pfsrd.com/basics-ability-scores/ability-scores#TOC-Intelligence-Int-\">Intelligence</a>&nbsp;modifier. Once a creature has been the target of a master strike, regardless of whether or not the save is made, that creature is immune to that rogue’s master strike for 24 hours. Creatures that are immune to sneak attack damage are also immune to this ability.</p>",
          "chat": "",
          "unidentified": ""
        },
        "damage": {
          "parts": []
        },
        "preparation": {
          "maxAmount": 0
        },
        "weaponData": {
          "critRange": 20,
          "critMult": 2
        },
        "range": {
          "maxIncrements": 1
        }
      },
      "sort": 300000,
      "flags": {},
      "img": "systems/pf1/icons/items/inventory/lockpick.jpg",
      "effects": []
    },
    {
      "_id": "e6IaBxKgMxy1yKlr",
      "name": "Human",
      "type": "race",
      "data": {
        "description": {
          "value": "<h2>Starting Age</h2>\n<table style=\"border-spacing: 0px; background-color: #ffffff; margin: 10px; table-layout: fixed; border-color: #888888; min-width: 200px; color: #333333; font-family: Varela, sans-serif;\" border=\"1\" cellpadding=\"5\">\n<thead style=\"box-sizing: border-box; background-color: #cfe2f3;\">\n<tr style=\"box-sizing: border-box;\">\n<th class=\"text\" style=\"box-sizing: border-box; padding: 2px; text-align: left; border: 1px solid #888888;\">Adulthood</th>\n<th class=\"text\" style=\"box-sizing: border-box; padding: 2px; text-align: left; border: 1px solid #888888;\">Intuitive<span style=\"box-sizing: border-box; position: relative; font-size: 10px; line-height: 0; vertical-align: baseline; top: -0.5em;\">1</span></th>\n<th class=\"text\" style=\"box-sizing: border-box; padding: 2px; text-align: left; border: 1px solid #888888;\">Self-Taught<span style=\"box-sizing: border-box; position: relative; font-size: 10px; line-height: 0; vertical-align: baseline; top: -0.5em;\">2</span></th>\n<th class=\"text\" style=\"box-sizing: border-box; padding: 2px; text-align: left; border: 1px solid #888888;\">Trained<span style=\"box-sizing: border-box; position: relative; font-size: 10px; line-height: 0; vertical-align: baseline; top: -0.5em;\">3</span></th>\n</tr>\n</thead>\n<tbody style=\"box-sizing: border-box;\">\n<tr style=\"box-sizing: border-box;\">\n<td class=\"text\" style=\"box-sizing: border-box; padding: 2px; vertical-align: top; border: 1px solid #888888;\">15 years</td>\n<td class=\"text\" style=\"box-sizing: border-box; padding: 2px; vertical-align: top; border: 1px solid #888888;\">+1d4 years<br style=\"box-sizing: border-box;\">(16 – 19 years)</td>\n<td class=\"text\" style=\"box-sizing: border-box; padding: 2px; vertical-align: top; border: 1px solid #888888;\">+1d6 years<br style=\"box-sizing: border-box;\">(16 – 21 years)</td>\n<td class=\"text\" style=\"box-sizing: border-box; padding: 2px; vertical-align: top; border: 1px solid #888888;\">+2d6 years<br style=\"box-sizing: border-box;\">(17 – 27 years)</td>\n</tr>\n</tbody>\n</table>\n<p><sup>1</sup>&nbsp;This category includes barbarians, oracles, rogues, and sorcerers.<br><sup>2</sup>&nbsp;This category includes bards, cavaliers, fighters, gunslingers, paladins, rangers, summoners, and witches.<br><sup>3</sup>&nbsp;This category includes alchemists, clerics, druids, inquisitors, magi, monks, and wizards.</p>\n<h2>Height and Weight</h2>\n<table style=\"border-spacing: 0px; background-color: #ffffff; margin: 10px; table-layout: fixed; border-color: #888888; min-width: 200px; color: #333333; font-family: Varela, sans-serif;\" border=\"1\" cellpadding=\"5\">\n<thead style=\"box-sizing: border-box; background-color: #cfe2f3;\">\n<tr style=\"box-sizing: border-box;\">\n<th class=\"text\" style=\"box-sizing: border-box; padding: 2px; text-align: left; border: 1px solid #888888;\">Gender</th>\n<th class=\"text\" style=\"box-sizing: border-box; padding: 2px; text-align: left; border: 1px solid #888888;\">Base Height</th>\n<th class=\"text\" style=\"box-sizing: border-box; padding: 2px; text-align: left; border: 1px solid #888888;\">Height Modifier</th>\n<th class=\"text\" style=\"box-sizing: border-box; padding: 2px; text-align: left; border: 1px solid #888888;\">Base Weight</th>\n<th class=\"text\" style=\"box-sizing: border-box; padding: 2px; text-align: left; border: 1px solid #888888;\">Weight Modifier</th>\n</tr>\n</thead>\n<tbody style=\"box-sizing: border-box;\">\n<tr style=\"box-sizing: border-box;\">\n<td class=\"text\" style=\"box-sizing: border-box; padding: 2px; vertical-align: top; border: 1px solid #888888;\">Male</td>\n<td class=\"text\" style=\"box-sizing: border-box; padding: 2px; vertical-align: top; border: 1px solid #888888;\">4 ft. 10 in.</td>\n<td class=\"text\" style=\"box-sizing: border-box; padding: 2px; vertical-align: top; border: 1px solid #888888;\">+2d10 in.<br style=\"box-sizing: border-box;\">(5 ft – 6 ft. 6 in.)</td>\n<td class=\"text\" style=\"box-sizing: border-box; padding: 2px; vertical-align: top; border: 1px solid #888888;\">120 lbs.</td>\n<td class=\"text\" style=\"box-sizing: border-box; padding: 2px; vertical-align: top; border: 1px solid #888888;\">+(2d10×5 lbs.)<br style=\"box-sizing: border-box;\">(130 – 220 lbs.)</td>\n</tr>\n<tr style=\"box-sizing: border-box; background-color: #f3f3f3;\">\n<td class=\"text\" style=\"box-sizing: border-box; padding: 2px; vertical-align: top; border: 1px solid #888888;\">Female</td>\n<td class=\"text\" style=\"box-sizing: border-box; padding: 2px; vertical-align: top; border: 1px solid #888888;\">4 ft. 5 in.</td>\n<td class=\"text\" style=\"box-sizing: border-box; padding: 2px; vertical-align: top; border: 1px solid #888888;\">+2d10 in.<br style=\"box-sizing: border-box;\">(4 ft. 7 in. – 6 ft. 1 in.)</td>\n<td class=\"text\" style=\"box-sizing: border-box; padding: 2px; vertical-align: top; border: 1px solid #888888;\">85 lbs.</td>\n<td class=\"text\" style=\"box-sizing: border-box; padding: 2px; vertical-align: top; border: 1px solid #888888;\">+(2d10×5 lbs.)<br style=\"box-sizing: border-box;\">(95 – 185 lbs.)</td>\n</tr>\n</tbody>\n</table>\n<h2>Standard Racial Traits</h2>\n<ul>\n<li><strong>Ability Score Modifiers</strong>: Human characters gain a +2&nbsp;<a href=\"https://www.d20pfsrd.com/basics-ability-scores/glossary#TOC-Racial-Bonus\">racial bonus</a>&nbsp;to one ability score of their choice at creation to represent their varied nature.</li>\n<li><strong>Size</strong>: Humans are Medium creatures and thus receive no bonuses or penalties due to their size.</li>\n<li><strong>Base Speed</strong>: Humans have a base speed of 30 feet.</li>\n<li><strong>Languages</strong>: Humans begin play speaking Common. Humans with high&nbsp;<a href=\"https://www.d20pfsrd.com/basics-ability-scores/ability-scores#TOC-Intelligence-Int-\">Intelligence</a>&nbsp;scores can choose any languages they want (except secret languages, such as Druidic). See the&nbsp;<a href=\"https://www.d20pfsrd.com/skills/linguistics\">Linguistics skill page</a>&nbsp;for more information about these languages.</li>\n</ul>\n<h3>Feat and Skill Racial Traits</h3>\n<ul>\n<li><strong>Bonus Feat</strong>: Humans select one extra feat at 1st level.</li>\n<li><strong>Skilled</strong>: Humans gain an additional skill rank at first level and one additional rank whenever they gain a level.</li>\n</ul>",
          "chat": "",
          "unidentified": ""
        },
        "tags": [],
        "changes": [],
        "changeFlags": {
          "loseDexToAC": false,
          "noEncumbrance": false,
          "mediumArmorFullSpeed": false,
          "heavyArmorFullSpeed": false,
          "noStr": false,
          "noDex": false,
          "oneInt": false,
          "oneWis": false,
          "oneCha": false
        },
        "contextNotes": [],
        "links": {
          "children": []
        },
        "armorProf": {
          "value": [],
          "custom": ""
        },
        "weaponProf": {
          "value": [],
          "custom": ""
        },
        "flags": {
          "boolean": [],
          "dictionary": []
        },
        "creatureType": "humanoid",
        "subTypes": [
          [
            "Human"
          ]
        ],
        "damage": {
          "parts": []
        },
        "range": {
          "maxIncrements": 1
        }
      },
      "sort": 1100000,
      "flags": {},
      "img": "systems/pf1/icons/races/human.jpg",
      "effects": []
    },
    {
      "_id": "p59wSS6FVxbJfrYw",
      "name": "Humanoid",
      "type": "class",
      "data": {
        "description": {
          "value": "<p>A humanoid usually has two arms, two legs, and one head, or a human-like torso, arms, and a head. Humanoids have few or no supernatural or extraordinary abilities, but most can speak and usually have well-developed societies. They are usually Small or Medium (with the exception of giants). Every humanoid creature also has a specific subtype to match its race, such as human, giant, goblinoid, reptilian, or tengu.</p>\n<p>Humanoids with 1 Hit Die exchange the features of their humanoid Hit Die for the class features of a PC or NPC class. Humanoids of this sort are typically presented as 1st-level warriors, which means they have average combat ability and poor saving throws. Humanoids with more than 1 Hit Die are the only humanoids who make use of the features of the humanoid type.</p>\n<h2><span id=\"Features\">Features</span></h2>\n<p>A humanoid has the following features (unless otherwise noted in a creature’s entry).</p>\n<ul>\n<li>d8 Hit Die, or by character class.</li>\n<li>Base attack bonus equal to 3/4 total Hit Dice (medium progression).</li>\n<li>One good save, usually&nbsp;<a href=\"https://www.d20pfsrd.com/gamemastering/combat#TOC-Reflex\" rel=\"nofollow\">Reflex</a>.</li>\n<li>Skill points equal to 2 + Int modifier (minimum 1) per Hit Die or by character class. The following are class skills for humanoids without a character class: <a href=\"https://www.d20pfsrd.com/skills/climb\" rel=\"nofollow\">Climb</a>, <a href=\"https://www.d20pfsrd.com/skills/craft\" rel=\"nofollow\">Craft</a>, <a href=\"https://www.d20pfsrd.com/skills/handle-animal\" rel=\"nofollow\">Handle Animal</a>, <a href=\"https://www.d20pfsrd.com/skills/heal\" rel=\"nofollow\">Heal</a>, <a href=\"https://www.d20pfsrd.com/skills/profession\" rel=\"nofollow\">Profession</a>, <a href=\"https://www.d20pfsrd.com/skills/ride\" rel=\"nofollow\">Ride</a>, and <a href=\"https://www.d20pfsrd.com/skills/survival\" rel=\"nofollow\">Survival</a>. Humanoids with a character class use their class’s skill list instead.</li>\n</ul>\n<h2><span id=\"Traits\"><a name=\"TOC-Traits\"></a>Traits</span></h2>\n<p>A humanoid possesses the following traits (unless otherwise noted in a creature’s entry).</p>\n<ul>\n<li>Proficient with all simple weapons, or by character class.</li>\n<li>Proficient with whatever type of armor (light, medium, or heavy) it is described as wearing, or by character class. If a humanoid does not have a class and wears&nbsp;<a href=\"https://www.d20pfsrd.com/basics-ability-scores/glossary#TOC-Armor-Bonus\">armor</a>, it is proficient with that type of armor and all lighter types. Humanoids not indicated as wearing armor are not proficient with armor. Humanoids are proficient with shields if they are proficient with any form of armor.</li>\n<li>Humanoids breathe, eat, and sleep.</li>\n</ul>",
          "chat": "",
          "unidentified": ""
        },
        "tags": [],
        "changes": [],
        "changeFlags": {
          "loseDexToAC": false,
          "noEncumbrance": false,
          "mediumArmorFullSpeed": false,
          "heavyArmorFullSpeed": false,
          "noStr": false,
          "noDex": false,
          "oneInt": false,
          "oneWis": false,
          "oneCha": false
        },
        "links": {
          "children": []
        },
        "tag": "humanoid",
        "useCustomTag": false,
        "armorProf": {
          "value": [],
          "custom": ""
        },
        "weaponProf": {
          "value": [],
          "custom": ""
        },
        "flags": {
          "boolean": [],
          "dictionary": []
        },
        "classType": "racial",
        "levels": 1,
        "level": 0,
        "hd": 8,
        "hp": 0,
        "bab": "med",
        "skillsPerLevel": 2,
        "savingThrows": {
          "fort": {
            "value": "low"
          },
          "ref": {
            "value": "high"
          },
          "will": {
            "value": "low"
          }
        },
        "fc": {
          "hp": {
            "value": 0
          },
          "skill": {
            "value": 0
          },
          "alt": {
            "value": 0
          }
        },
        "classSkills": {
          "acr": false,
          "apr": false,
          "art": false,
          "blf": false,
          "clm": true,
          "crf": true,
          "dip": false,
          "dev": false,
          "dis": false,
          "esc": false,
          "fly": false,
          "han": true,
          "hea": true,
          "int": false,
          "kar": false,
          "kdu": false,
          "ken": false,
          "kge": false,
          "khi": false,
          "klo": false,
          "kna": false,
          "kno": false,
          "kpl": false,
          "kre": false,
          "lin": false,
          "lor": false,
          "per": false,
          "prf": false,
          "pro": true,
          "rid": true,
          "sen": false,
          "slt": false,
          "spl": false,
          "ste": false,
          "sur": true,
          "swm": false,
          "umd": false
        },
        "damage": {
          "parts": []
        },
        "range": {
          "maxIncrements": 1
        }
      },
      "sort": 100000,
      "flags": {},
      "img": "systems/pf1/icons/skills/blue_35.jpg",
      "effects": []
    },
    {
      "_id": "izoOJp6ng4LvQTFS",
      "name": "Defensive Ability: evasion",
      "type": "feat",
      "data": {
        "description": {
          "value": "",
          "chat": "",
          "unidentified": ""
        },
        "tags": [],
        "activation": {
          "cost": 1,
          "type": ""
        },
        "unchainedAction": {
          "activation": {
            "cost": 1,
            "type": ""
          }
        },
        "duration": {
          "value": null,
          "units": ""
        },
        "target": {
          "value": ""
        },
        "range": {
          "value": null,
          "units": "",
          "maxIncrements": 1,
          "minValue": null,
          "minUnits": "",
          "long": null
        },
        "uses": {
          "value": 0,
          "max": 0,
          "per": null,
          "autoDeductCharges": true,
          "autoDeductChargesCost": "1"
        },
        "measureTemplate": {
          "type": "",
          "size": "0",
          "overrideColor": false,
          "customColor": "",
          "overrideTexture": false,
          "customTexture": ""
        },
        "attackName": "",
        "actionType": "",
        "attackBonus": "",
        "critConfirmBonus": "",
        "damage": {
          "parts": [],
          "critParts": [],
          "nonCritParts": []
        },
        "attackParts": [],
        "formulaicAttacks": {
          "count": {
            "formula": "",
            "value": null
          },
          "bonus": {
            "formula": ""
          },
          "label": null
        },
        "formula": "",
        "ability": {
          "attack": "",
          "damage": "",
          "damageMult": 1,
          "critRange": 20,
          "critMult": 2
        },
        "save": {
          "dc": "",
          "type": "",
          "description": ""
        },
        "effectNotes": "",
        "attackNotes": "",
        "soundEffect": "",
        "changes": [],
        "changeFlags": {
          "loseDexToAC": false,
          "noEncumbrance": false,
          "mediumArmorFullSpeed": false,
          "heavyArmorFullSpeed": false,
          "noStr": false,
          "noDex": false,
          "oneInt": false,
          "oneWis": false,
          "oneCha": false
        },
        "contextNotes": [],
        "links": {
          "children": [],
          "charges": []
        },
        "tag": "",
        "useCustomTag": false,
        "armorProf": {
          "value": [],
          "custom": ""
        },
        "weaponProf": {
          "value": [],
          "custom": ""
        },
        "flags": {
          "boolean": [],
          "dictionary": []
        },
        "featType": "misc",
        "associations": {
          "classes": []
        },
        "showInQuickbar": false,
        "nonlethal": false,
        "abilityType": "",
        "crOffset": "0",
        "disabled": false,
        "attack": {
          "parts": []
        }
      },
      "sort": 1000000,
      "flags": {},
      "img": "icons/svg/mystery-man.svg",
      "effects": []
    },
    {
      "_id": "Pbx9VLwyfMVtnCWM",
      "name": "Defensive Ability: trap sense +1",
      "type": "feat",
      "data": {
        "description": {
          "value": "",
          "chat": "",
          "unidentified": ""
        },
        "tags": [],
        "activation": {
          "cost": 1,
          "type": ""
        },
        "unchainedAction": {
          "activation": {
            "cost": 1,
            "type": ""
          }
        },
        "duration": {
          "value": null,
          "units": ""
        },
        "target": {
          "value": ""
        },
        "range": {
          "value": null,
          "units": "",
          "maxIncrements": 1,
          "minValue": null,
          "minUnits": "",
          "long": null
        },
        "uses": {
          "value": 0,
          "max": 0,
          "per": null,
          "autoDeductCharges": true,
          "autoDeductChargesCost": "1"
        },
        "measureTemplate": {
          "type": "",
          "size": "0",
          "overrideColor": false,
          "customColor": "",
          "overrideTexture": false,
          "customTexture": ""
        },
        "attackName": "",
        "actionType": "",
        "attackBonus": "",
        "critConfirmBonus": "",
        "damage": {
          "parts": [],
          "critParts": [],
          "nonCritParts": []
        },
        "attackParts": [],
        "formulaicAttacks": {
          "count": {
            "formula": "",
            "value": null
          },
          "bonus": {
            "formula": ""
          },
          "label": null
        },
        "formula": "",
        "ability": {
          "attack": "",
          "damage": "",
          "damageMult": 1,
          "critRange": 20,
          "critMult": 2
        },
        "save": {
          "dc": "",
          "type": "",
          "description": ""
        },
        "effectNotes": "",
        "attackNotes": "",
        "soundEffect": "",
        "changes": [],
        "changeFlags": {
          "loseDexToAC": false,
          "noEncumbrance": false,
          "mediumArmorFullSpeed": false,
          "heavyArmorFullSpeed": false,
          "noStr": false,
          "noDex": false,
          "oneInt": false,
          "oneWis": false,
          "oneCha": false
        },
        "contextNotes": [],
        "links": {
          "children": [],
          "charges": []
        },
        "tag": "",
        "useCustomTag": false,
        "armorProf": {
          "value": [],
          "custom": ""
        },
        "weaponProf": {
          "value": [],
          "custom": ""
        },
        "flags": {
          "boolean": [],
          "dictionary": []
        },
        "featType": "misc",
        "associations": {
          "classes": []
        },
        "showInQuickbar": false,
        "nonlethal": false,
        "abilityType": "",
        "crOffset": "0",
        "disabled": false,
        "attack": {
          "parts": []
        }
      },
      "sort": 1000000,
      "flags": {},
      "img": "icons/svg/mystery-man.svg",
      "effects": []
    },
    {
      "_id": "FNPGLe9L6PacS4Nc",
      "name": "Defensive Ability: uncanny dodge   ",
      "type": "feat",
      "data": {
        "description": {
          "value": "",
          "chat": "",
          "unidentified": ""
        },
        "tags": [],
        "activation": {
          "cost": 1,
          "type": ""
        },
        "unchainedAction": {
          "activation": {
            "cost": 1,
            "type": ""
          }
        },
        "duration": {
          "value": null,
          "units": ""
        },
        "target": {
          "value": ""
        },
        "range": {
          "value": null,
          "units": "",
          "maxIncrements": 1,
          "minValue": null,
          "minUnits": "",
          "long": null
        },
        "uses": {
          "value": 0,
          "max": 0,
          "per": null,
          "autoDeductCharges": true,
          "autoDeductChargesCost": "1"
        },
        "measureTemplate": {
          "type": "",
          "size": "0",
          "overrideColor": false,
          "customColor": "",
          "overrideTexture": false,
          "customTexture": ""
        },
        "attackName": "",
        "actionType": "",
        "attackBonus": "",
        "critConfirmBonus": "",
        "damage": {
          "parts": [],
          "critParts": [],
          "nonCritParts": []
        },
        "attackParts": [],
        "formulaicAttacks": {
          "count": {
            "formula": "",
            "value": null
          },
          "bonus": {
            "formula": ""
          },
          "label": null
        },
        "formula": "",
        "ability": {
          "attack": "",
          "damage": "",
          "damageMult": 1,
          "critRange": 20,
          "critMult": 2
        },
        "save": {
          "dc": "",
          "type": "",
          "description": ""
        },
        "effectNotes": "",
        "attackNotes": "",
        "soundEffect": "",
        "changes": [],
        "changeFlags": {
          "loseDexToAC": false,
          "noEncumbrance": false,
          "mediumArmorFullSpeed": false,
          "heavyArmorFullSpeed": false,
          "noStr": false,
          "noDex": false,
          "oneInt": false,
          "oneWis": false,
          "oneCha": false
        },
        "contextNotes": [],
        "links": {
          "children": [],
          "charges": []
        },
        "tag": "",
        "useCustomTag": false,
        "armorProf": {
          "value": [],
          "custom": ""
        },
        "weaponProf": {
          "value": [],
          "custom": ""
        },
        "flags": {
          "boolean": [],
          "dictionary": []
        },
        "featType": "misc",
        "associations": {
          "classes": []
        },
        "showInQuickbar": false,
        "nonlethal": false,
        "abilityType": "",
        "crOffset": "0",
        "disabled": false,
        "attack": {
          "parts": []
        }
      },
      "sort": 1000000,
      "flags": {},
      "img": "icons/svg/mystery-man.svg",
      "effects": []
    },
    {
      "_id": "9wpD7Y2gQVyoUoLU",
      "name": "short sword",
      "type": "attack",
      "data": {
        "description": {
          "value": "",
          "chat": "",
          "unidentified": ""
        },
        "tags": [],
        "activation": {
          "cost": 1,
          "type": "standard"
        },
        "unchainedAction": {
          "activation": {
            "cost": 2,
            "type": "action"
          }
        },
        "duration": {
          "value": null,
          "units": "inst"
        },
        "target": {
          "value": ""
        },
        "range": {
          "value": null,
          "units": "",
          "maxIncrements": 1,
          "minValue": null,
          "minUnits": "",
          "long": null
        },
        "uses": {
          "value": 0,
          "max": 0,
          "per": "",
          "autoDeductCharges": false,
          "autoDeductChargesCost": "1"
        },
        "measureTemplate": {
          "type": "",
          "size": "0",
          "overrideColor": false,
          "customColor": "",
          "overrideTexture": false,
          "customTexture": ""
        },
        "attackName": "",
        "actionType": "mwak",
        "attackBonus": "0",
        "critConfirmBonus": "",
        "damage": {
          "parts": [
            [
              "sizeRoll(1, 6, @size, 4) + 0",
              "P"
            ]
          ],
          "critParts": [],
          "nonCritParts": []
        },
        "attackParts": [],
        "formulaicAttacks": {
          "count": {
            "formula": "",
            "value": null
          },
          "bonus": {
            "formula": ""
          },
          "label": null
        },
        "formula": "",
        "ability": {
          "attack": "str",
          "damage": "str",
          "damageMult": 1,
          "critRange": "19",
          "critMult": 2
        },
        "save": {
          "dc": "",
          "type": "",
          "description": ""
        },
        "effectNotes": "",
        "attackNotes": "Reach: 5 ft.\nmwk short sword +5 (1d6+1/19-20)",
        "soundEffect": "",
        "links": {
          "children": [],
          "charges": []
        },
        "tag": "",
        "useCustomTag": false,
        "flags": {
          "boolean": [],
          "dictionary": []
        },
        "attackType": "weapon",
        "masterwork": true,
        "nonlethal": false,
        "enh": null,
        "proficient": true,
        "primaryAttack": true,
        "showInQuickbar": true,
        "broken": false,
        "held": "normal",
        "conditionals": [],
        "attack": {
          "parts": []
        }
      },
      "sort": 100000,
      "flags": {},
      "img": "icons/svg/mystery-man.svg",
      "effects": []
    },
    {
      "_id": "gvZOsOjAmqOX0aGK",
      "name": "dagger",
      "type": "attack",
      "data": {
        "description": {
          "value": "",
          "chat": "",
          "unidentified": ""
        },
        "tags": [],
        "activation": {
          "cost": 1,
          "type": "standard"
        },
        "unchainedAction": {
          "activation": {
            "cost": 2,
            "type": "action"
          }
        },
        "duration": {
          "value": null,
          "units": "inst"
        },
        "target": {
          "value": ""
        },
        "range": {
          "value": null,
          "units": "",
          "maxIncrements": 1,
          "minValue": null,
          "minUnits": "",
          "long": null
        },
        "uses": {
          "value": 0,
          "max": 0,
          "per": "",
          "autoDeductCharges": false,
          "autoDeductChargesCost": "1"
        },
        "measureTemplate": {
          "type": "",
          "size": "0",
          "overrideColor": false,
          "customColor": "",
          "overrideTexture": false,
          "customTexture": ""
        },
        "attackName": "",
        "actionType": "rwak",
        "attackBonus": "-1",
        "critConfirmBonus": "",
        "damage": {
          "parts": [
            [
              "sizeRoll(1, 4, @size, 4) + 0",
              "P or S"
            ]
          ],
          "critParts": [],
          "nonCritParts": []
        },
        "attackParts": [],
        "formulaicAttacks": {
          "count": {
            "formula": "",
            "value": null
          },
          "bonus": {
            "formula": ""
          },
          "label": null
        },
        "formula": "",
        "ability": {
          "attack": "dex",
          "damage": "str",
          "damageMult": 1,
          "critRange": "19",
          "critMult": 2
        },
        "save": {
          "dc": "",
          "type": "",
          "description": ""
        },
        "effectNotes": "",
        "attackNotes": "mwk dagger +6 (1d4+1/19-20)",
        "soundEffect": "",
        "links": {
          "children": [],
          "charges": []
        },
        "tag": "",
        "useCustomTag": false,
        "flags": {
          "boolean": [],
          "dictionary": []
        },
        "attackType": "weapon",
        "masterwork": true,
        "nonlethal": false,
        "enh": null,
        "proficient": true,
        "primaryAttack": true,
        "showInQuickbar": true,
        "broken": false,
        "held": "normal",
        "conditionals": [],
        "attack": {
          "parts": []
        }
      },
      "sort": 100000,
      "flags": {},
      "img": "icons/svg/mystery-man.svg",
      "effects": []
    },
    {
      "_id": "gcS61dnaQVs4JIIb",
      "name": "Special Attack: Sneak Attack +2d6",
      "type": "attack",
      "data": {
        "description": {
          "value": "",
          "chat": "",
          "unidentified": ""
        },
        "tags": [],
        "activation": {
          "cost": 1,
          "type": "standard"
        },
        "unchainedAction": {
          "activation": {
            "cost": 2,
            "type": "action"
          }
        },
        "duration": {
          "value": null,
          "units": "inst"
        },
        "target": {
          "value": ""
        },
        "range": {
          "value": null,
          "units": "",
          "maxIncrements": 1,
          "minValue": null,
          "minUnits": "",
          "long": null
        },
        "uses": {
          "value": 0,
          "max": 0,
          "per": "",
          "autoDeductCharges": false,
          "autoDeductChargesCost": "1"
        },
        "measureTemplate": {
          "type": "",
          "size": "0",
          "overrideColor": false,
          "customColor": "",
          "overrideTexture": false,
          "customTexture": ""
        },
        "attackName": "",
        "actionType": "other",
        "attackBonus": "-4",
        "critConfirmBonus": "",
        "damage": {
          "parts": [
            [
              "2d6",
              ""
            ]
          ],
          "critParts": [],
          "nonCritParts": []
        },
        "attackParts": [],
        "formulaicAttacks": {
          "count": {
            "formula": "",
            "value": null
          },
          "bonus": {
            "formula": ""
          },
          "label": null
        },
        "formula": "",
        "ability": {
          "attack": "str",
          "damage": "str",
          "damageMult": 1,
          "critRange": 20,
          "critMult": 2
        },
        "save": {
          "dc": "",
          "type": "",
          "description": ""
        },
        "effectNotes": "",
        "attackNotes": "",
        "soundEffect": "",
        "links": {
          "children": [],
          "charges": []
        },
        "tag": "",
        "useCustomTag": false,
        "flags": {
          "boolean": [],
          "dictionary": []
        },
        "attackType": "weapon",
        "masterwork": false,
        "nonlethal": false,
        "enh": null,
        "proficient": true,
        "primaryAttack": true,
        "showInQuickbar": true,
        "broken": false,
        "held": "normal",
        "conditionals": [],
        "attack": {
          "parts": []
        }
      },
      "sort": 100000,
      "flags": {},
      "img": "icons/svg/mystery-man.svg",
      "effects": []
    },
    {
      "_id": "WyGg4ciN7NAQQzxt",
      "name": "Improved Initiative",
      "type": "feat",
      "data": {
        "description": {
          "value": "",
          "chat": "",
          "unidentified": ""
        },
        "tags": [],
        "activation": {
          "cost": 1,
          "type": ""
        },
        "unchainedAction": {
          "activation": {
            "cost": 1,
            "type": ""
          }
        },
        "duration": {
          "value": null,
          "units": ""
        },
        "target": {
          "value": ""
        },
        "range": {
          "value": null,
          "units": "",
          "maxIncrements": 1,
          "minValue": null,
          "minUnits": "",
          "long": null
        },
        "uses": {
          "value": 0,
          "max": 0,
          "per": null,
          "autoDeductCharges": true,
          "autoDeductChargesCost": "1"
        },
        "measureTemplate": {
          "type": "",
          "size": "0",
          "overrideColor": false,
          "customColor": "",
          "overrideTexture": false,
          "customTexture": ""
        },
        "attackName": "",
        "actionType": null,
        "attackBonus": "",
        "critConfirmBonus": "",
        "damage": {
          "parts": [],
          "critParts": [],
          "nonCritParts": []
        },
        "attackParts": [],
        "formulaicAttacks": {
          "count": {
            "formula": "",
            "value": null
          },
          "bonus": {
            "formula": ""
          },
          "label": null
        },
        "formula": "",
        "ability": {
          "attack": null,
          "damage": null,
          "damageMult": 1,
          "critRange": 20,
          "critMult": 2
        },
        "save": {
          "dc": 0,
          "type": "",
          "description": ""
        },
        "effectNotes": "",
        "attackNotes": "",
        "soundEffect": "",
        "changes": [],
        "changeFlags": {
          "loseDexToAC": false,
          "noEncumbrance": false,
          "mediumArmorFullSpeed": false,
          "heavyArmorFullSpeed": false,
          "noStr": false,
          "noDex": false,
          "oneInt": false,
          "oneWis": false,
          "oneCha": false
        },
        "contextNotes": [],
        "links": {
          "children": [],
          "charges": []
        },
        "tag": "",
        "useCustomTag": false,
        "armorProf": {
          "value": [],
          "custom": ""
        },
        "weaponProf": {
          "value": [],
          "custom": ""
        },
        "flags": {
          "boolean": [],
          "dictionary": []
        },
        "featType": "feat",
        "associations": {
          "classes": []
        },
        "showInQuickbar": false,
        "nonlethal": false,
        "abilityType": "none",
        "crOffset": "",
        "disabled": false,
        "attack": {
          "parts": []
        }
      },
      "sort": 100000,
      "flags": {},
      "img": "icons/svg/mystery-man.svg",
      "effects": []
    },
    {
      "_id": "KELSmjEwJmeemNJZ",
      "name": "Power Attack",
      "type": "feat",
      "data": {
        "description": {
          "value": "",
          "chat": "",
          "unidentified": ""
        },
        "tags": [],
        "activation": {
          "cost": 1,
          "type": ""
        },
        "unchainedAction": {
          "activation": {
            "cost": 1,
            "type": ""
          }
        },
        "duration": {
          "value": null,
          "units": ""
        },
        "target": {
          "value": ""
        },
        "range": {
          "value": null,
          "units": "",
          "maxIncrements": 1,
          "minValue": null,
          "minUnits": "",
          "long": null
        },
        "uses": {
          "value": 0,
          "max": 0,
          "per": null,
          "autoDeductCharges": true,
          "autoDeductChargesCost": "1"
        },
        "measureTemplate": {
          "type": "",
          "size": "0",
          "overrideColor": false,
          "customColor": "",
          "overrideTexture": false,
          "customTexture": ""
        },
        "attackName": "",
        "actionType": null,
        "attackBonus": "",
        "critConfirmBonus": "",
        "damage": {
          "parts": [],
          "critParts": [],
          "nonCritParts": []
        },
        "attackParts": [],
        "formulaicAttacks": {
          "count": {
            "formula": "",
            "value": null
          },
          "bonus": {
            "formula": ""
          },
          "label": null
        },
        "formula": "",
        "ability": {
          "attack": null,
          "damage": null,
          "damageMult": 1,
          "critRange": 20,
          "critMult": 2
        },
        "save": {
          "dc": 0,
          "type": "",
          "description": ""
        },
        "effectNotes": "",
        "attackNotes": "",
        "soundEffect": "",
        "changes": [],
        "changeFlags": {
          "loseDexToAC": false,
          "noEncumbrance": false,
          "mediumArmorFullSpeed": false,
          "heavyArmorFullSpeed": false,
          "noStr": false,
          "noDex": false,
          "oneInt": false,
          "oneWis": false,
          "oneCha": false
        },
        "contextNotes": [],
        "links": {
          "children": [],
          "charges": []
        },
        "tag": "",
        "useCustomTag": false,
        "armorProf": {
          "value": [],
          "custom": ""
        },
        "weaponProf": {
          "value": [],
          "custom": ""
        },
        "flags": {
          "boolean": [],
          "dictionary": []
        },
        "featType": "feat",
        "associations": {
          "classes": []
        },
        "showInQuickbar": false,
        "nonlethal": false,
        "abilityType": "none",
        "crOffset": "",
        "disabled": false,
        "attack": {
          "parts": []
        }
      },
      "sort": 100000,
      "flags": {},
      "img": "icons/svg/mystery-man.svg",
      "effects": []
    },
    {
      "_id": "MXx55Nqgy7WFPOM4",
      "name": "Skill Focus (Stealth) ",
      "type": "feat",
      "data": {
        "description": {
          "value": "",
          "chat": "",
          "unidentified": ""
        },
        "tags": [],
        "activation": {
          "cost": 1,
          "type": ""
        },
        "unchainedAction": {
          "activation": {
            "cost": 1,
            "type": ""
          }
        },
        "duration": {
          "value": null,
          "units": ""
        },
        "target": {
          "value": ""
        },
        "range": {
          "value": null,
          "units": "",
          "maxIncrements": 1,
          "minValue": null,
          "minUnits": "",
          "long": null
        },
        "uses": {
          "value": 0,
          "max": 0,
          "per": null,
          "autoDeductCharges": true,
          "autoDeductChargesCost": "1"
        },
        "measureTemplate": {
          "type": "",
          "size": "0",
          "overrideColor": false,
          "customColor": "",
          "overrideTexture": false,
          "customTexture": ""
        },
        "attackName": "",
        "actionType": null,
        "attackBonus": "",
        "critConfirmBonus": "",
        "damage": {
          "parts": [],
          "critParts": [],
          "nonCritParts": []
        },
        "attackParts": [],
        "formulaicAttacks": {
          "count": {
            "formula": "",
            "value": null
          },
          "bonus": {
            "formula": ""
          },
          "label": null
        },
        "formula": "",
        "ability": {
          "attack": null,
          "damage": null,
          "damageMult": 1,
          "critRange": 20,
          "critMult": 2
        },
        "save": {
          "dc": 0,
          "type": "",
          "description": ""
        },
        "effectNotes": "",
        "attackNotes": "",
        "soundEffect": "",
        "changes": [],
        "changeFlags": {
          "loseDexToAC": false,
          "noEncumbrance": false,
          "mediumArmorFullSpeed": false,
          "heavyArmorFullSpeed": false,
          "noStr": false,
          "noDex": false,
          "oneInt": false,
          "oneWis": false,
          "oneCha": false
        },
        "contextNotes": [],
        "links": {
          "children": [],
          "charges": []
        },
        "tag": "",
        "useCustomTag": false,
        "armorProf": {
          "value": [],
          "custom": ""
        },
        "weaponProf": {
          "value": [],
          "custom": ""
        },
        "flags": {
          "boolean": [],
          "dictionary": []
        },
        "featType": "feat",
        "associations": {
          "classes": []
        },
        "showInQuickbar": false,
        "nonlethal": false,
        "abilityType": "none",
        "crOffset": "",
        "disabled": false,
        "attack": {
          "parts": []
        }
      },
      "sort": 100000,
      "flags": {},
      "img": "icons/svg/mystery-man.svg",
      "effects": []
    },
    {
      "_id": "EXzfr4Irg9Lby6Tu",
      "name": "SQ: change shape (and tiger; polymorph)",
      "type": "feat",
      "data": {
        "description": {
          "value": "",
          "chat": "",
          "unidentified": ""
        },
        "tags": [],
        "activation": {
          "cost": 1,
          "type": ""
        },
        "unchainedAction": {
          "activation": {
            "cost": 1,
            "type": ""
          }
        },
        "duration": {
          "value": null,
          "units": ""
        },
        "target": {
          "value": ""
        },
        "range": {
          "value": null,
          "units": "",
          "maxIncrements": 1,
          "minValue": null,
          "minUnits": "",
          "long": null
        },
        "uses": {
          "value": 0,
          "max": 0,
          "per": null,
          "autoDeductCharges": true,
          "autoDeductChargesCost": "1"
        },
        "measureTemplate": {
          "type": "",
          "size": "0",
          "overrideColor": false,
          "customColor": "",
          "overrideTexture": false,
          "customTexture": ""
        },
        "attackName": "",
        "actionType": "",
        "attackBonus": "",
        "critConfirmBonus": "",
        "damage": {
          "parts": [],
          "critParts": [],
          "nonCritParts": []
        },
        "attackParts": [],
        "formulaicAttacks": {
          "count": {
            "formula": "",
            "value": null
          },
          "bonus": {
            "formula": ""
          },
          "label": null
        },
        "formula": "",
        "ability": {
          "attack": "",
          "damage": "",
          "damageMult": 1,
          "critRange": 20,
          "critMult": 2
        },
        "save": {
          "dc": "",
          "type": "",
          "description": ""
        },
        "effectNotes": "",
        "attackNotes": "",
        "soundEffect": "",
        "changes": [],
        "changeFlags": {
          "loseDexToAC": false,
          "noEncumbrance": false,
          "mediumArmorFullSpeed": false,
          "heavyArmorFullSpeed": false,
          "noStr": false,
          "noDex": false,
          "oneInt": false,
          "oneWis": false,
          "oneCha": false
        },
        "contextNotes": [],
        "links": {
          "children": [],
          "charges": []
        },
        "tag": "",
        "useCustomTag": false,
        "armorProf": {
          "value": [],
          "custom": ""
        },
        "weaponProf": {
          "value": [],
          "custom": ""
        },
        "flags": {
          "boolean": [],
          "dictionary": []
        },
        "featType": "misc",
        "associations": {
          "classes": []
        },
        "showInQuickbar": false,
        "nonlethal": false,
        "abilityType": "",
        "crOffset": "0",
        "disabled": false,
        "attack": {
          "parts": []
        }
      },
      "sort": 1000000,
      "flags": {},
      "img": "icons/svg/mystery-man.svg",
      "effects": []
    },
    {
      "_id": "ROGnrBDp7ZVHdbpz",
      "name": "SQ: rogue talents (fast stealth)",
      "type": "feat",
      "data": {
        "description": {
          "value": "",
          "chat": "",
          "unidentified": ""
        },
        "tags": [],
        "activation": {
          "cost": 1,
          "type": ""
        },
        "unchainedAction": {
          "activation": {
            "cost": 1,
            "type": ""
          }
        },
        "duration": {
          "value": null,
          "units": ""
        },
        "target": {
          "value": ""
        },
        "range": {
          "value": null,
          "units": "",
          "maxIncrements": 1,
          "minValue": null,
          "minUnits": "",
          "long": null
        },
        "uses": {
          "value": 0,
          "max": 0,
          "per": null,
          "autoDeductCharges": true,
          "autoDeductChargesCost": "1"
        },
        "measureTemplate": {
          "type": "",
          "size": "0",
          "overrideColor": false,
          "customColor": "",
          "overrideTexture": false,
          "customTexture": ""
        },
        "attackName": "",
        "actionType": "",
        "attackBonus": "",
        "critConfirmBonus": "",
        "damage": {
          "parts": [],
          "critParts": [],
          "nonCritParts": []
        },
        "attackParts": [],
        "formulaicAttacks": {
          "count": {
            "formula": "",
            "value": null
          },
          "bonus": {
            "formula": ""
          },
          "label": null
        },
        "formula": "",
        "ability": {
          "attack": "",
          "damage": "",
          "damageMult": 1,
          "critRange": 20,
          "critMult": 2
        },
        "save": {
          "dc": "",
          "type": "",
          "description": ""
        },
        "effectNotes": "",
        "attackNotes": "",
        "soundEffect": "",
        "changes": [],
        "changeFlags": {
          "loseDexToAC": false,
          "noEncumbrance": false,
          "mediumArmorFullSpeed": false,
          "heavyArmorFullSpeed": false,
          "noStr": false,
          "noDex": false,
          "oneInt": false,
          "oneWis": false,
          "oneCha": false
        },
        "contextNotes": [],
        "links": {
          "children": [],
          "charges": []
        },
        "tag": "",
        "useCustomTag": false,
        "armorProf": {
          "value": [],
          "custom": ""
        },
        "weaponProf": {
          "value": [],
          "custom": ""
        },
        "flags": {
          "boolean": [],
          "dictionary": []
        },
        "featType": "classFeat",
        "associations": {
          "classes": []
        },
        "showInQuickbar": false,
        "nonlethal": false,
        "abilityType": "",
        "crOffset": "0",
        "disabled": false,
        "attack": {
          "parts": []
        }
      },
      "sort": 1000000,
      "flags": {},
      "img": "icons/svg/mystery-man.svg",
      "effects": []
    },
    {
      "_id": "WzcNQUzxCCXGviXZ",
      "name": "sbc | Conversion Changes",
      "type": "buff",
      "data": {
        "description": {
          "value": "<h2>Actor created with Lavaeolous' StatBlock Converter</h2>\n<p>This Buff contains data that could not be represented in other ways. It is advised to re-check the stats in this when adding new features, such as Feats (e.g. Improved Initiative).</p>",
          "chat": "",
          "unidentified": ""
        },
        "tags": [],
        "changes": [
          {
            "_id": "vd1hu53c",
            "formula": "7",
            "operator": "+",
            "subTarget": "mhp",
            "modifier": "untyped",
            "priority": 1,
            "value": 0,
            "target": "misc"
          },
          {
            "_id": "u8u3e8ob",
            "formula": "4",
            "operator": "+",
            "subTarget": "init",
            "modifier": "untyped",
            "priority": 1,
            "value": 0,
            "target": "misc"
          },
          {
            "_id": "5a3v4cqj",
            "formula": "3",
            "operator": "+",
            "subTarget": "aac",
            "modifier": "untyped",
            "priority": 1,
            "value": 0,
            "target": "ac"
          },
          {
            "_id": "8kcmvx58",
            "formula": "0",
            "operator": "+",
            "subTarget": "fort",
            "modifier": "untyped",
            "priority": 1,
            "value": 0,
            "target": "savingThrows"
          },
          {
            "_id": "dq8tcgjx",
            "formula": "-2",
            "operator": "+",
            "subTarget": "ref",
            "modifier": "untyped",
            "priority": 1,
            "value": 0,
            "target": "savingThrows"
          },
          {
            "_id": "s6cqfc8r",
            "formula": "0",
            "operator": "+",
            "subTarget": "will",
            "modifier": "untyped",
            "priority": 1,
            "value": 0,
            "target": "savingThrows"
          }
        ],
        "changeFlags": {
          "loseDexToAC": false,
          "noEncumbrance": false,
          "mediumArmorFullSpeed": false,
          "heavyArmorFullSpeed": false,
          "noStr": false,
          "noDex": false,
          "oneInt": false,
          "oneWis": false,
          "oneCha": false
        },
        "contextNotes": [],
        "links": {
          "children": []
        },
        "tag": "",
        "useCustomTag": false,
        "flags": {
          "boolean": [],
          "dictionary": []
        },
        "buffType": "perm",
        "active": true,
        "level": "",
        "hideFromToken": true,
        "damage": {
          "parts": []
        },
        "range": {
          "maxIncrements": 1
        }
      },
      "sort": 100001,
      "flags": {},
      "img": "systems/pf1/icons/skills/yellow_36.jpg",
      "effects": []
    }
  ],
  "effects": []
}